<?xml version="1.0" encoding="utf-8"?>
<!-- Generator: Adobe Illustrator 26.0.1, SVG Export Plug-In . SVG Version: 6.00 Build 0)  -->
<svg version="1.1" id="Layer_1" xmlns="http://www.w3.org/2000/svg" xmlns:xlink="http://www.w3.org/1999/xlink" x="0px" y="0px"
	 viewBox="0 0 16 16" style="enable-background:new 0 0 16 16;" xml:space="preserve">
<style type="text/css">
	.st0{fill-rule:evenodd;clip-rule:evenodd;fill:#ECF0F1;}
</style>
<path id="message_1_accept" class="st0" d="M14,0H2C0.9,0,0,0.9,0,2v12c0,1.1,0.9,2,2,2c0.4,0,0.7-0.1,1-0.3L5.9,14H14
	c1.1,0,2-0.9,2-2V2C16,0.9,15.1,0,14,0z M14,12H5.4L2,14V2h12V12z"/>
<path class="st0" d="M10,6.1H9v-1c0-0.6-0.4-1-1-1c-0.6,0-1,0.4-1,1l0,1H6c-0.6,0-1,0.4-1,1s0.4,1,1,1h1l0,1c0,0.6,0.4,1,1,1
	s1-0.4,1-1v-1l1,0c0.6,0,1-0.4,1-1S10.6,6.1,10,6.1z"/>
</svg>
