<?xml version="1.0" encoding="utf-8"?>
<!-- Generator: Adobe Illustrator 26.0.2, SVG Export Plug-In . SVG Version: 6.00 Build 0)  -->
<svg version="1.1" id="Layer_1" xmlns="http://www.w3.org/2000/svg" xmlns:xlink="http://www.w3.org/1999/xlink" x="0px" y="0px"
	 viewBox="0 0 16 16" style="enable-background:new 0 0 16 16;" xml:space="preserve">
<style type="text/css">
	.st0{clip-path:url(#SVGID_00000093882970379086892910000016795419485224340399_);}
	.st1{fill-rule:evenodd;clip-rule:evenodd;fill:#ECF0F1;}
</style>
<g>
	<defs>
		<rect id="SVGID_1_" x="-0.1" y="0" width="16.1" height="16"/>
	</defs>
	<clipPath id="SVGID_00000134215420606944561310000005438725729304152499_">
		<use xlink:href="#SVGID_1_"  style="overflow:visible;"/>
	</clipPath>
	<g id="Group_3731" style="clip-path:url(#SVGID_00000134215420606944561310000005438725729304152499_);">
		<path id="Path_550" class="st1" d="M13.9,5h-1v2h1v7l-2.4-2H5.9v-2H5.4l-1.5,1.2V12c0,0.1,0,0.3,0.1,0.4C4.2,13.3,5,14,5.9,14h4.9
			l1.9,1.5c0.4,0.3,0.8,0.5,1.3,0.5c0.3,0,0.6-0.1,0.9-0.2c0.7-0.3,1.1-1,1.1-1.8V7C16,5.9,15.1,5,13.9,5 M5,9h4.9c1.1,0,2-0.9,2-2
			V2c0-1.1-0.9-2-2-2h-8c-1.1,0-2,0.9-2,2v7c0,0.8,0.4,1.5,1.1,1.8C1.3,10.9,1.6,11,1.9,11c0.5,0,0.9-0.2,1.3-0.5l0.7-0.6L5,9z
			 M1.9,9V2h8v5H4.3L3.9,7.3L1.9,9z"/>
	</g>
</g>
</svg>
