email,first_name
zeinahoblos@hotmail.com,Salam Hoblos
zdnorton@hotmail.com,Courtney Norton
ywkimau@naver.com,Albert Kim
youngmadi21@gmail.com,Madison Young
ying@adsi.org.au,Ercan Elveren
yasu_dwette@hotmail.com,Alara Karabatak
yasmineneeamuthkhan@gmail.com,Parwin Neeamuthkhan
xerox.me@yahoo.com,Phillip Xenos
xanadu134@bigpond.com,Adrienne Watson
writetoglen@me.com,Glen Morrow
wj_bao@hotmail.com,Wenjing Bao
willow_starhawk@hotmail.com,Allira Whitham
williamsotutaha@hotmail.com,Stefan Spirovski
will4874@hotmail.com,Kara LeFrancke
wheels0079@yahoo.com,Michelle Williamson
weneva59@gmail.com,Wendy Evans (NSW)
wend1953@gmail.com,Wendy Fraser
wells_jkbb@yahoo.com.au,Brett Abrahams
weijiw@yahoo.com.au,Wei Ji Wong
waynewalton67@outlook.com,Wayne Walton
wayne.maher@optusnet.com.au,Wayne Maher
warjo1811@optusnet.com.au,Chealsea Wilton
wapownall@dcsi.net.au,Albert Slefendorfas
vyl@footprintsinc.org.au,Julia Evershed
vmbrander@gmail.com,Victoria Brander
vmaria0808@yahoo.com,Joseph Nguyen
vlrmarjarmmr@hotmail.com,Michael Randall
vivienlim86@hotmail.com,Dominic Chau
vivienbarteljost@outlook.com,Vivien Bartel-Jost
vivian.urban0@gmail.com,Leah Urban
visionsofcolour@bigpond.com,Amy Diaz
victoria.wielgosz@ndis.gov.au,Jennifer Barber
vicky@rrds.org.au,Mary-Kathryn Smyth
vickielee5361@gmail.com,Brian Lee
vickie.hudson.storm@gmail.com,Vickie Hudson
vicki@burrundalai.org.au,Jason Capper
vicki.palmer@hotmail.com,Ian Palmer (exited)
vicdavey89@gmail.com,Kobi Stewart
vessy21@hotmail.com,Marianna King
veronicadove541@gmail.com,Mary Pollock
veroempeigne@hotmail.com,Nicolas Empeigne
vdi@student.unimelb.edu.au,Vanessa Dinatale
vaughan.roles@icloud.com,Vaughan Roles
vanthopoulos@hotmail.com,Maria Giannopoulos
vanessabellao@icloud.com,Vanessa O'Neill
vanessa.manzano73@gmail.com,Vanessa Ann Manzano
valerie_9_1@hotmail.com,Jaid Chang
valeri.twins.ndis@outlook.com,Charlotte Valeri
v_hnsn@hotmail.com,Jenny Brody
ufalanga@bigpond.net.au,Ula Falanga
troycity@live.com.au,Troy Ellis
tristramwake@gmail.com,Tristram Wake
tristenneisaacson@gmail.com,Renae Jackway
trishelle@tpg.com.au,Jessica Reed
trinity.rose.andrews@gmail.com,Trinity Rose Andrews
trenear.tarrantcom@gmail.com,Trenear Tarrant
treesa.parrish@barkuma.com.au,Jack Cox
tracyvelli@gmail.com,Joshua David Iacovelli
tracy_2665@msn.com,Justin Martinez
tracieburns@hotmail.com,Ashton Burns
tpalmer77@bigpond.com,Christopher Brent Palmer
toulagadea@optusnet.com.au,Arianna Gadea
toptroop@gmail.com,Delia Moodie
tonymoonsamy@yahoo.com,Dayalan Moonsamy
tony.nelson3@det.nsw.edu.au,Lynette Nelson
tony.doevendans@gmail.com,Tony Doevendans
tony_638@hotmail.com,Chloe Rowlands
tnrward2@bigpond.com,Richard Ward- SA
tkostrz@live.co.uk,Dayna Kostrz
tjcool70@hotmail.com,Alex Pell
tinapol@bigpond.com,Adam Polizzi
tinamacdonald1@hotmail.com,Gary Jankowski
tinabarnicoat@gmail.com,Zachary Barnicoat
tiger_loves_paula@hotmail.com,Paula-Lee Buckwell
tiffany.wiles@bigpond.com,Jack Ball
thsevethday@hotmail.com,Samuel Pakoti
thowe16@eq.edu.au,Nardia Cluff
thornelee64@gmail.com,Mattlock James Harvey
thomsonhellyn@gmail.com,Jimmy James
thom.morgan85@gmail.com,Thomas Morgan
thinkaboutitfirst@outlook.com,Aaron George
therese.hennessey@bigpond.com,Joel Sampson- Hennessey
theo31@bigpond.com,Sandra Theodore
theferg007@gmail.com,Thomas Ferguson
the_angels@optusnet.com.au,Tyler Cramp
terrylord59@yahoo.com.au,Terrence (Terry) Lord
teresalawson90@hotmail.com,Mira Lawson
teresakimm@yahoo.com,Adam-Luc (Adam Kimm) Kimm-Stoten
teresa.vandevelde@svha.org.au,Georgia Van de Velde
tegan-fisher-2013@hotmail.com,Luc Fisher
tedlaraghu@gmail.com,Abbhilash Tedla
tdwright@tpg.com.au,Amy Elizabeth Wright
tcp22@bigpond.com,Tony Knight-Gibson
taylahmc25@gmail.com,Taylah McHugh
tayla.brandon@hotmail.com,Tayla Brandon
tanyacarroll78@outlook.com.au,Avery Carroll-Searle
tania.curlis@gmail.com,Patrick Alford Underwood
tananeptyltd@bigpond.com,Tania Hay
tammienye@bigpond.com,Bryce McCarron
tamhahle@y7mail.com,Tammy Hahle
taijohnnguyen@hotmail.com,Thanh Pham
t.moncrieff@gmail.com,Owen Moncrieff
swally88@hotmail.com,Lisa Wong
suzannemussillon@gmail.com,Suzanne Mussillon
suzanne.adler@gmail.com,Jeremy Adler
susanwheeler1953@gmail.com,James Wheeler
susanparkerseng@gmail.com,Amanda Carroll
susannehunt@y7mail.com,Ethan Hunt
susanlcalf@gmail.com,Susan Calf
susanhackwell@gmail.com,Benjamin Hackwell
susanannemoore@iinet.net.au,Susan Moore
susan@intelligentproperty.net.au,Hugh Grant
surfsundy1@yahoo.com,Chelsea Holt
supersusan100@hotmail.com,Jonathan Gladstone
suja.syd@gmail.com,Suja Varghese
suely.lu@gmail.com,Andrew Pham
suegrimo@hotmail.com,Graeme Grimston
suebensted@hotmail.com,Susan Bensted
sue@stergo.me,Susan Stergo
sue@empowerability.org.au,Christopher Eulenstein
sue.tilsley@gmail.com,Charlotte Tilsley
su.soanes@aboutinclusion.com.au,Daniel Ussher
stutash@tpg.com.au,Madison Rhodes
stockdale.sarah.j@edumail.vic.gov.au,William Stockdale
steventownend@bigpond.com,Sophia Townend
stevenp@westnet.com.au,Hayden Prior
steve54@live.com.au,Steven Wayne Carlyle
stephen.shiels28@hotmail.com,Stephen Shiels
stephen.m.white@det.nsw.edu.au,Stephen White
steph.agnew@hotmail.com,Stephanie Agnew
stanbell2010@gmail.com,Stanley Bell
staceyhaynes35@gmail.com,Boyd Haynes
staceyfrankie@yahoo.com,Frances Stacey
stacee_22@hotmail.com,Stacee Krznaric
sqwyd@bigpond.com,Murray George
squidggye@hotmail.com,Dianne Juleff
soutarbruce@yahoo.com.au,Rhianna Soutar
sophie.randall@forsight.org.au,Anqi (Angie) Dong
sophie.pronger@gmail.com,Sophie Pronger
sophiaventouris@gmail.com,Alexandros Protonotarios
sonyahealey.syd@gmail.com,Sonya Healey
sonia.efendy@dementia.org.au,Debra Barwick
sofia.pensi@breakthru.org.au,David Scerri
sobbab@tpg.com.au,Serena Sobb
snowys3@bigpond.com,Fiona Wilson
snontasuti@hotmail.com,Nalinee Kowitchindachai
smouakkassa@yahoo.com.au,Safie Mouakkassa
smileysteve58@yahoo.com.au,Elizabeth Smiley
smessmer@bigpond.com,Karen Messmer
slulat@outlook.com,Shaahid Lulat
sloanrangers3@bigpond.com,Tracey Sloan
slmatthews123@outlook.com,Samantha Matthews
slele@optushome.com.au,Geeta Lele
sldowd@optusnet.com.au,Jessica Dowd
skye.rowe92@gmail.com,Noel Rowe
skwilliamson78@dodo.com.au,Chloe Emily Williamson
sjweldon@tpg.com.au,Stephen Weldon
simonthomas888@gmail.com,Simon Thomas
simonegarland888@gmail.com,James Garland
simmisdo@yahoo.com,Gautam Vir
silviacheuk@hotmail.com,Yasmin Cheuk
silvanapavlovic@hotmail.com,Silvana Pavlovic
siewnen.khoo@bigpond.com,Siew nen Khoo
sheridans@aol.com.au,Matthew Sheridan
sheree.mcclelland@icloud.com,Sheree McClelland
shellyleslie56@gmail.com,Sherrille Stephens
sheila_reeve08@msn.com,Luke Reeve
shazzyg93@gmail.com,Ripley Hart
sharonm03@aussiebb.com.au,Marshall (Holly-Anne) Malpass
sharon.taafe@neaminational.org.au,Rebecca Woodhouse
sharon.farrell@genu.org.au,Deborah Hodges
sharamj@mdaltd.org.au,Shahram Jazan
shannon.woolacott@planpartners.com.au,Bobby (Harry) Xenidis
shanker_purva@yahoo.com.au,Raghav Shanker
shanedi77@hotmail.com,Kruz Dolan
shane.oshea@bigpond.com,Jacob O'Shea
selu.samate@hotmail.com,Tupuivaha Samate
sean.murray@aftercare.com.au,Steven Ryan
seahorsebaby@gmail.com,Alex Driscoll
scottywilson50@gmail.com,Scott Wilson
scmunro@yahoo.com.au,David Munro
schultzdogg@hotmail.com,Dante Greaves
sbinting@hotmail.com,Warren Dennis
sbeydoun88@gmail.com,Joe Hannay
saulfamily66@gmail.com,Mason Saul
saraosman0125@hotmail.com,Mariam Berjaoui
sarahwahibe@icloud.com,Sarah Melva McDonald
sarah.soyal@breakthru.org.au,Phyllis Cini
sarah.phillpott@live.com.au,Sarah Phillpott
sarah.matta@me-well.org.au,Michael Lindsey
sarah.jomantas@genu.org.au,Ricky McNamara
sarah.baldry94@gmail.com,Sarah Baldry
santee6@gmail.com,Maheswaran Thannimalai
sandracaporella3@gmail.com,Tamara Milich
sandra@sbfp.com.au,Sharon Nava
sandra.p.chan@gmail.com,Hon Yuen
sanderson.marilyn@gmail.com,Peter Burns
sanderling@optusnet.com.au,Matthew James Thomas
sandee134@bigpond.com,Andrew Iannella
sanat.heweston@vinnies.org.au,Khang Dinh Le
samsmilne@bigpond.com,Allison Milne
samanthadiquinzio@gmail.com,Samantha Di Quinzio
salma.ghadhban@aftercare.com.au,Stephen Jolliffe
sally_jones2@msn.com,Noah Hick
s.e.dickenson@bigpond.com,Sharyn Kleinhanss
s.cragg@bigpond.com,Sally Cragg
ryankirkby2@gmail.com,Ryan Kirkby
ryan.chloe@gmail.com,Alivia Hunt
rusty909@optusnet.com.au,Kevin Crowley
rujun.yi@mindaustralia.org.au,Craig Jennings
rudra_kumar@hotmail.com,Arun Kumar
rubitashrestha@mdsi.org.au,Iman Shaaya
rsuson.edu@gmail.com,Ali Ragab
rsharma@uniting.org,Bailey McDougall
rosy_manjeet@yahoo.com,Kevin Singh
rossjacko66@bigpond.com,Kurt Jackson
ross.exton@me-well.org.au,Fred Bissett
roslynleighton@gmail.com,Roslyn Leighton
rosietorn@optusnet.com.au,Tom Argiropoulos
rosh.nosce.te.ipsum@gmail.com,Roshan Johal
roseobrien77@hotmail.com,Rosemary O'Brien
roseanna.barletta@afford.com.au,Aladdin Salim
ronna.a.g@gmail.com,Annabelle Guzman
ronfaragss@mail.com,Romani Girgis
rogerlizberry@gmail.com,Elizabeth Berry
rod@rsitc.com.au,Rodney Stern
robyn.a.connor@gmail.com,Robyn Connor
robwatt@live.com.au,Andre Seculovic
robertsonshirley83@yahoo.com,Shirley Robertson
robertshawnwendel@gmail.com,Robert Wendel
robertconnor_76@hotmail.com,Robert Connor (430333167)
rmit.es.lin@gmail.com,Jia Shu Xu
rk_coutinho@hotmail.com,Ravi Coutinho
rivetair@bigpond.com,Esther Eschauzier
rivera.william@gmail.com,William De Souza
rish81@yahoo.com,Sher Khan
rimabechara@hotmail.com,Daniel Bechara
rikky.collins@gmail.com,Robert Collins
rikki.schliebs@hotmail.com,Graeme Schliebs
rickivella@hotmail.com,Ulricke Vella
richellestreet@gmail.com,Richelle Street
richardcairns@bigpond.com,Robert Cairns (430008862)
richard.fuller1953@gmail.com,Richard Fuller
rhiannamalas@gmail.com,Rhianna Malas
renee_anderson@email.com,Loclan Anderson
renaec@yfs.org.au,Zachary Adam Knight
renae.pearlman@me.com,Renae Pearlman
redminiwagon@hotmail.com,William Turner
rebecca.kievsky@gmail.com,Rebecca Kievsky
rebecca.clark@mercyconnect.org.au,Jayden McIntyre
rbryson3@bigpond.com,Robyn Bryson
rbpike14@outlook.com,Robert Pike
razorproperty@dodo.com.au,Narelle Young
rayanjoul@hotmail.com,Raymond Anjoul
ray.adams@acer.org,Raymond Adams
rapwils@gmail.com,Richard (Rory) Wilson
rannakhaushu93@gmail.com,Agid Khawsho
ranaelchami96@gmail.com,Nour Kassar
ramiabarakat1@gmail.com,Celia Abo Aita
ramez@boltbuilding.com.au,George Saad
ralph-01@hotmail.com,Marinella Halwes
rajrinish@yahoo.com.au,Rinish Raj
rajeevkapoor78@gmail.com,Krish Kapoor
raed2004@live.com.au,Jasmin El-Naji
rachellarionoff@yahoo.com,Rachel Larionoff
rachealoraw630@gmail.com,Racheal O'Raw
rachaelinglis76@gmail.com,Rachael Inglis
r.hart2000@yahoo.com,Rhiannon Hart
pvandrunen@tcota.com.au,Ian Shapland
ps8454p2p@gmail.com,Wayne Manwaring
promotec@iinet.net.au,Daniel Jones
princecarlos.nl@gmail.com,Carlos Blanch
posty6964@yahoo.com.au,Robert Post
poss-81@hotmail.com,Bryan Greenslade
pmha121@gmail.com,Blake Hallinan
pkrice_2000@yahoo.com,Paul Rice
pjayne66@gmail.com,Steven Astbury
pir89085@bigpond.net.au,Peter Irvine
pina.ambrosino@icloud.com,Gianluca Ambrosino
philippa@bigpond.net.au,Olivia Silva
philc1@live.com,Phillip Cream
philandjo5@gmail.com,Elle Beauchamp
pgwestern@opg.nsw.gov.au,Joseph Jomaa
pgbarnes@hotmail.com,Paul Barnes
petulajwilson@gmail.com,Petula (Pat) Wilson
peterallen4@bigpond.com.au,Robyn Allen
peter.wells17@bigpond.com,Peter Wells
peta.turner@gmail.com,Peta Turner
Person Account Email,Account Name
penny.graham@hotmail.com,Alexander Graham
pelliott@dsa.org.au,Paul Elliott
pekinpatch@yahoo.com.au,Kelly Carkeek
pearlyew123@hotmail.com,Pearl Yew
pdaengchart@uniting.org,David Spall
pauline.denman62@gmail.com,Alexander Langley
paulduncanwoodberry@gmail.com,Paul Woodberry
paula.rosser@lwb.org.au,Jenny Greentree
patrik08@bigpond.com,Steven Oram
patrickwilliambrowning@hotmail.com,Connor Browning
patrickballard06@gmail.com,Patrick Ballard
pat.grandy@gmail.com,Rebecca Kertesz
parkerkl@hotmail.com,Harrison Parker
pamwootton71@icloud.com,Pamela Wootton
pamelapeach01@yahoo.com.au,James Steward
palmerkathy18@gmail.com,Troy Palmer
pakakode2004@icloud.com,Katherine Webb
owl_loveyou@hotmail.com,Valentino Pagura
oscarandmilo@bigpond.com,Jean Richters
oliviawilliams697@yahoo.com,Gulaangga Williams
ola.karim2805@hotmail.com,Zane Masri
o.issa@hotmail.com.au,Omar Issa
nwplhill13@bigpond.com,Nikson Hill
nursecheryl_32@yahoo.com,Cheryl Sharpe
nsey6710@gmail.com,Chantelle Seymour-Smith
noyapf179@gmail.com,Longnan Wang
normakaraali@hotmail.com,Aleena Kara-Ali
noni.hardes@breakthru.org.au,Nathan Sheen
nolesthompson@hotmail.com,Justine Fenske
nnttnln@yahoo.com.au,Annette Nolan
nm_creus@hotmail.com,Francisco Cruz
nism007@163.com,Bijin Ni
nilrac01@gmail.com,Byron Carlin
nikkipollard007@gmail.com,James Pollard
nikkibosco1@gmail.com,Tyler Stapleton
nikkiarnold1@me.com,Nicole Haigh
nikki.herrick@gmail.com,Jack Burke
nicolestarling2515@hotmail.com,Kai Starling
nicolejobling78@gmail.com,Junia Johnston
nicky.skinner@iagroup.org.au,Deanna Muller
nickbirzo@hotmail.com,Nicholas Birznieks
nick.john@sparkneurocare.com.au,Pamela Smeaton
nicholasgraves56@gmail.com,Nicholas Graves
nicholas.cherrie@flourishaustralia.org.au,Darren Daniels
ngebara50@gmail.com,Nada Gebara
ngarbutt@barnardos.org.au,Khye Gardner
ngarawang@gmail.com,Deng Deng
news4hughes@gmail.com,Stephen Mcnamara
newlandphillip@gmail.com,Mark Newland
neridaluck@arafmiqld.org,Kevin Cannell
nelliecot@msn.com,Scott Price
nele.schmidt.teuteberg@gmail.com,David Ball
neilacopleston@gmail.com,Sally Copleston
ndis430478513@bigpond.com,Matthew Hinds
nawresa@hotmail.com,Nawres Ajeel
nathan.straume@gmail.com,Charlotte Straume
nathan.matthews2017@outlook.com,Aurora Rose Matthews
natasha.brake@me.com,Natasha Brake
natalie.webb@lwb.org.au,Croyden Dennis
natalie.nortman@contractor.net,Paul Gange
nancyp66@hotmail.com,Kenneth Penny
nancydallas@bigpond.com,Riley Humphries
najwas@bigpond.com,Mitchell Sawan
nadja.sanjay@gmail.com,Martyn Sanjay
nadia.khan@neaminational.org.au,Aaminah Nashabe
myrtleford@bigpond.com,Peter Purss
myraeddie.b@gmail.com,Edward Beavan
mwrigley@yahoo.com.au,Mason Cutts
mwilliams@csu.edu.au,Rory Sowrey
murraydean71@outlook.com,Murray Dean
mulujanelle@bigpond.com,Samuel Gebru
mudgeeborn@gmail.com,Meredith Heavens
mtanlain@hotmail.com,Gregorius Tanlain
mssmoothoo@hotmail.com,Olivia Wakehem
mskmoir@live.com,Ametile Moir
msjthomas@bigpond.com,Rowan Thomas
msimons620@gmail.com,Michael William Simons
msaunders@newhorizons.org.au,Amanda Molloy
msafrench@yahoo.com.au,April French
ms.spiteri@dr.com,Martin Spiteri
mperosh@hotmail.com,Peter Perosh
mpbharris@bigpond.com,Ben Harris
morabitoelizabeth@gmail.com,Guiseppe Morabito
monim.rana42@gmail.com,Mohammad Waqas Rana
monica@iinet.net.au,Monica McGhie
mollycrow77@gmail.com,Melissa Woodman
mohammed.tabbah@hotmail.com,Ayeesha Tabbah
mohamad.2000issa@hotmail.com,Mohamad Issa
moana.hudson@cohealth.org.au,Brendan Picken
mnaysmith@hotmail.com,Matthew Naysmith
mmbroadfoot@bigpond.com,Ashleigh Pamela Broadfoot
mjbutler123@gmail.com,Paul Butler
missytheblond@gmail.com,Declan McMurtry
missak_m@yahoo.com,Marsel Issa
misr98@yahoo.com,Hanif Idris
misdivine@hotmail.com,Raymond Hannah
minhajpakteiawal10@gmail.com,Minhaj Pakteiawal
millcreekfarm@bigpond.com,Emma Jansen
miljoanna55@gmail.com,Bartek Milenkiewicz
miki_diki@msn.com,Mia Priest-Lombardo
mikel.dajti@live.com,Mikel Dajti
mickymay7@hotmail.com,Mickayla Prindable
mickonwheels@gmail.com,Michael Sattin
mickeysbutterfly89@gmail.com,Hayden Kernaghan
mickanell1@bigpond.com,Michael Petrie
michigrayson@hotmail.com,Cooper Sparks
michelletencza@gmail.com,Michelle Tencza
michelle.mitchell3@icloud.com,Michelle Mitchell
michelle.cullen@ndis.gov.au,Lucas Issa
michelle_elphick@hotmail.com,Madeleine Elphick
michaelgpini@icloud.com,Michael Pini
michaelgharrison93@gmail.com,Michael Harrison
michaelfboys@gmail.com,Annie Boys
michaelasaad1@gmail.com,Samir Asaad
micaiah.vella@sjog.org.au,Michael Mastrorocco
mia21@hotmail.com,Shahani (Shai) Beer-Plesko
mia.luchini@gmail.com,John Iodice
mgonzalez@participateaustralia.com.au,Abdul Alchaeban
mgillott@optusnet.com.au,Cooper Gillott
metro97@bigpond.net.au,Luke Camilleri
merryn.bertus@htw.com.au,Nigel Bertus
merriwataxis@westnet.com.au,Tess Orton
meluv28forever@yahoo.com.au,Sonia Lee-Ann Lightbody
melsandona@gmail.com,Maria Rigon
melpitt@gmail.com,Julianna Pitt
mellindaelbotaty@yahoo.com.au,Alexander El Botaty
melissa.deacon@flourishaustralia.org.au,Maree Hyland
meleaoc@tpg.com.au,Melea O'Connell
melanie123v@icloud.com,Mckenzie Valesini
melanie.degraaff@cyclotek.com,Rhylie De Graaff
meicleung@outlook.com,Mei Chuang Leung
megmangooo@gmail.com,Megan Ellis
meghenderson1@gmail.com,Megan Henderson
megansykes14@gmail.com,Megan Sykes
meganhuynh6789@gmail.com,Vinh-Khang (Justin) Le-Huynh
meegan.harper@northcott.com.au,Inez Bugeja
meaghan.broom@wearevivid.org.au,Robert Weston
mdsouza@uniting.org,Andrew Neems
mcollins@participateaustralia.com.au,Laurence O'Neill
mcinnerney.thomas@gmail.com,Thomas McInnerney
mchand20@hotmail.com,Navitesh Chand
mcfarm@activ8.net.au,Stuart McInnes
mcatling@tpg.com.au,Joshua Catling
mbargenquast@bigpond.com,John Bargenquast
mbanh5709@gmail.com,Quoc Anh Banh
mayjshalmendarez2015@outlook.com,Omar Moreno Corado
mauro.tarquinio@merrihealth.org.au,David Braybrook
maureenmca@yahoo.com.au,Joshua Sloboda
maureen.cook.2010@gmail.com,Maureen Cook
mattyent1@gmail.com,Matthew Johnson
matthewsmolloy@hotmail.com,Mahaylia Matthews
matthew.cheyne@hotmail.com,Matthew Cheyne
matandnes@yahoo.com.au,Chloe Griffith
massatrya@hotmail.com,Satrya Imawan
mary.creagan@benevolent.org.au,Rabia Durrani
martiniffland@gmail.com,Paul Iffland
martin_mirzai5@hotmail.com,Majid (Martin) Mirzai
marottad@stgeorge.com.au,Matthew Marotta
marktoni1@icloud.com,Michael Fanning
marksetchfield@arafmi.com.au,Travis Williams
marklewisedwardsmith@ymail.com,Mark Lewis Edward Smith
mark.guanco@amaysim.com.au,Max Guanco
marieta.rob@bigpond.com,Martha Crous
mariemaurer22@gmail.com,Susan Mary Maurer
mariela.athanasiou@breakthru.org.au,Louise Spiteri
mariarr.cristinarr@gmail.com,Maria Cristina de Paz
margot123@bigpond.com,Gary Baines
margmoo@bigpond.net.au,Michael Medcalf
margconnole280@gmail.com,Margaret Connole
margaretmartin37@yahoo.com.au,Aaron Martin
maree@ndism.com.au,James Ellis
marcievello0@gmail.com,Armida Vello
marciacarmichael56@gmail.com,Marcia Carmichael
manny@peoplesfirstchoice.com.au,Paul Chandler
mandydyer72@gmail.com,Amanda Vivian Dyer
mandhfisher@gmail.com,Jacob Alexander Fisher
manar_40.05@hotmail.com,Sahar ElHajj
manager@egbolos.com.au,George Bolos
majahalmonte29@gmail.com,Alverein Almonte
magda.a@sjog.org.au,Robert Constantine
madfish_23@bigpond.com,Barry Webb
madengate@bigpond.com,Harrison Dengate
madeline.kamamis@breakthru.org.au,Rita Sammut
m.leftakis@morrowsodali.com,Matthew Leftakis
lyssoughtred@yahoo.com,Avoca Oughtred
lynmcmanus@bigpond.com,Phillip McManus
lynette.trau@parramattamission.org.au,Karina Church
lynette_e2003@yahoo.com,Lyn Eggington
lynellis@optusnet.com.au,Lachlan Keane
lyn.mcgrath@internode.on.net,Jamie Willsman
lworth@newhorizons.org.au,Allan Jamieson
lulageb123@gmail.com,Lula GEBREGZIABHER
ludmiladeev@hotmail.com,Alexander Belikov
lucy.robattard@gmail.com,Jake Attard
lucy.markoff@ntfriendship.org.au,Rachel Dodd
ltemprosa@gmail.com,Lorenzo Temprosa
lpatterson@bne.catholic.edu.au,Wayne Patterson
louisekovac@gmail.com,Damien Kovac
louiseilacqua@optusnet.com.au,Megan Ilacqua
lou_weese_02@hotmail.com,Marie Louise Horne
lothar_christiani@hotmail.com,Jonathan Christiani
lotfaliknine@hotmail.com,Kamal Lotfali
lois_gwen@hotmail.com,John Noye
logojake@hotmail.com.au,Gordon Black
lmsewell2906@gmail.com,Richard Sewell
lmcneil1@bigpond.com,Ryan Mcneil
lloydwbarrett@gmail.com,Griffin Larner
llawllaw@hotmail.com,Terence Law
lizstolk59@gmail.com,Henry Stolk
lizduggan131@bigpond.com,George Duggan
liyu261866203@hotmail.com,Xinyu (Rebecca) Yang
lisaweekly1@gmail.com,Lisa Weekly
lisareale28@gmail.com,Nicolas Reale
lisamvyvyan@yahoo.com.au,Ashley Smith
lisamikesmith@optusnet.com.au,Lisa Johnstone
lisagayehunt@gmail.com,Lisa Hunt
lisa.charlton@cpl.org.au,Suah Song
lisa.cecil@withinaustralia.org.au,Simmone Palmer
lisa_tafea31@hotmail.com,Malakai Kaci
lindypatterson72@gmail.com,Lindy Patterson
lindapclai@gmail.com,Caleb Lai
lindamaryjohnson1970@yahoo.com.au,Bailey Johnson (Billman)
linda@urbanedgestyle.com.au,Abigail Hinckesman
linda.shaw@openminds.org.au,Wayne Hansen
linda.buffey@neaminational.org.au,Mohamed Bajunaki
lin77wendy@hotmail.com,Shu-Fen Chien
lilredbug@live.com.au,Brody John
lillygray08@outlook.com,Lilly Hartcher
liiiamjames@hotmail.com,Liam Glavas
lichairtia207@yahoo.com.au,Kevin Tang
liammsmummy@hotmail.com,Nathan Tokley
lfauvett@bigpond.net.au,Chloe Fauvette
leighn55@gmail.com,Jenny-Marie Nelson
leigh.allen@hotmail.com,Madison Allen
leemorse63@hotmail.com,Bradley Heimerl
leejapoly@gmail.com,Leeja Joseph
lee.gallagher1@bigpond.com,Alexander Gallagher
leayrds2@bigpond.com,Susan Leayr
leannethomas62@optusnet.com.au,Leanne Thomas
leanneblaikie1@hotmail.com,Zoe Blaikie-West
leannearkadianos@gmail.com,Maximos Rodger Arkadianos
leahmoran@valmar.com.au,Thoryn Watt
lbissicks87@gmail.com,Tyler Bissicks-Morales
laylalove84@outlook.com,Sylvia Elliot
layla_el_agha@hotmail.com,Natalie El-Agha
lavyagopa@yahoo.com,Vishnu Gopakumar
laurie.fitzpatrick@gatewayhealth.org.au,Paul McPherson
laurenvincent77@hotmail.com,Prue Skelding
laurel_sampson@hotmail.com,Laurel Sampson
laura.manuel@breakthru.org.au,Gail Trinder
larney2u@hotmail.com,Leanne Lingard
larissa_ianni@hotmail.com,Anthony Ianni
lands.graham@bigpond.com,John Knowles
lambrina.b@hotmail.com,Irene Pantsos
lamb.melanie1@gmail.com,Melanie Lamb
lalita.vaswani@gmail.com,Umesh Vaswani
lachlan.n93@gmail.com,Lachlan Napier
lachlan.anesbury@gmail.com,Lachlan McKay
kymanderson181@gmail.com,Kym Reeves
kyliemaree02@hotmail.com,Kylie-Maree Beller
kylieannwilmot@yahoo.com,Kylie Wilmot
kylie.tuckey600@schools.sa.edu.au,Jye McPherson
kyannerichards@gmail.com,Ky Richards
kushbu.lal100@gmail.com,Kushbu Lal
kuokkun.cheong84@gmail.com,Kuok Kun Cheong
kumbaya@optusnet.com.au,Sharon Ritchie
ktmarks07@gmail.com,Violet Marks
kteese8@bigpond.com,Patrick Green
krystaljas@icloud.com,Michelle Kouvaras
krisyan@yahoo.com,Ashton Ang
kristy.west74@gmail.com,Jackson West
kristiejoy@hotmail.com,Georgie Ohlson
kppahulu@optusnet.com.au,Tamati Michael Pahulu
konkirya@gmail.com,Kon Kiryakudya
konariii2002@yahoo.com,Kon Havelas
kntc2011@gmail.com,Nathan Farrugia
kmagee@each.com.au,Frances McIntosh
km0277@icloud.com,Simone Thomas
kkerschat@optusnet.com.au,Kieran Kerschat
kkbaker@bigpond.com,Ashleigh Baker
kirsty4.0@hotmail.com,Ella Butters
kirsty.surr@flourishaustralia.org.au,Rebecca Lambert
kirsty.luttrell@gmail.com,Talia Lowe
kingcobra1876@gmail.com,Katherine Eaddy
kimrahi@weblive.com.au,Henry Rahi
kimgordontextile@gmail.com,Kim Marie Gordon
kimfarr75@hotmail.com,Kim Farr
kimberlyjoylars@gmail.com,Kimberly Larsen
kim.craig4@bigpond.com,Robert Craig
kim_sheehan88@hotmail.com,Dawn Sheehan
kiaraenglish@hotmail.com,Nathan Furbank
kiahtriat@gmail.com,George Andre Ian Triat
khspike32@gmail.com,Kael Honey
kh.m27@yahoo.com,Omer Khamis
kezzy26@live.com.au,Aleigha Butler
kezia98@live.com,Jackson Van Essen
kesherar@gmail.com,Kay Sherar
kerschat@bigpond.com,Ethan Kerschat
kerry@mcdindustries.com.au,Kerry McDonnell
kerrin.orourke123@gmail.com,Kerrin O'Rourke
keran_77@hotmail.com,Keran Villis
kelmsmith@yahoo.com,Dailyn Smith
kelly.walker@sswahs.nsw.gov.au,Jack Woodyatt
kelly.maule70@gmail.com,Simon Maule
kelly.anne.thornton76@gmail.com,Kelly Thornton
kelly_thomas2003@hotmail.com,Kelly Thomas
kelliecristin@gmail.com,Cristin Nicholson
kelliebacon5@gmail.com,Bobby Breen
keepintouchwithann@gmail.com,Tomas McVicar
keeg1ash@gmail.com,Samuel Keegan
kbwinters@mail.com,Brokk Winters
kbennett@scoastnet.com.au,Aaron Bennett
kazhonda1802@gmail.com,Rhonda Narelle Honda
kazangel2010@hotmail.com,Karen Spencer
kayrush216@hotmail.com,Michelle Lang
kaydentaylor92@hotmail.com,Beau Riosa
kausanny@hotmail.com,Auden Cheung
katvella@msn.com,Mathew Vella
katrinaborg76@gmail.com,Katrina Procek (Borg)
katrina.marshall@rhac.nsw.edu.au,Alistair Marshall
katrina.loukas@flourishaustralia.org.au,Benjamin Aurisch
katrina.ford@amwu.asn.au,Katrina Ford
katmacca79@gmail.com,Harley Smith
katiet@esc.net.au,Kathryn (Kate) Masters
katiemcintosh85@gmail.com,Reena McIntosh
katiejayneday@gmail.com,Katie Day
katie@loudisland.com,Jane Barry
kathryn.fischer.1956@outlook.com,Kathryn Fischer
kath_70@hotmail.com,Haylea Nitschke
kate.troy@communitygateway.net.au,Ellen Mahony
kate.emerson@outlook.com.au,Andrew Emerson
kate_s_92@hotmail.com,Kate Stitz
kasongo_p@yahoo.com,Nyota Otatete
karin5188@hotmail.com,Elizabeth Shine
karenvernon@iinet.net.au,Karen Vernon
karensertori3145@gmail.com,Karen Sertori
karenjohnjordan@gmail.com,John Alexander
karenbandpaulw@optusnet.com.au,Meekaylaa Maaee
karen.glasson@gmail.com,Karen Glasson
karar.ndis@hotmail.com,Ali Hadjawi
kanz383@gmail.com,Adrian Colby
kandlcole@bigpond.com.au,Helen Harman
kanderson@anglicaresa.com.au,Sadala Abdu
k2veech19@gmail.com,Alana Higgins
k.e.boyton@icloud.com,Hayden Bradbury
k_syofyan@yahoo.com.au,Kiki Syofyan
jwils390@eq.edu.au,Margot Wilson
justinw@bremick.com.au,Xander Wearne
justinm@footprintsinc.org.au,Raoul Guihot
juliewhite_7@hotmail.com,David Kenneth White
juliet.darkcloud@hotmail.com,Damian Hicazian
julieprevost63@gmail.com,Mitchell Prevost
julielillis73@gmail.com,Joshua Lillis
juliejclark@me.com,Paul Grainger
julieanmorris@gmail.com,Juliean Morris
julie3116@hotmail.com,Julie Kerr
julianne.lehmann60@gmail.com,Benjamin Scott Lehmann
julee.riddell78@outlook.com,Julie Riddell
judyhester@rocketmail.com,Judith Hester
judith_purple_lady@hotmail.com,Majenta (Judith) Lavender
juanita.mayenco@gmail.com,Mary Leitch
juanita.kerr@icloud.com,Juanita Kerr
jtzobrien@gmail.com,Josphine Hamilton O'Brien
jtdprovider@gmail.com,Gregory Longmuir
jsyes@hotmail.com,Johnny Soueid
jstrathd@bigpond.net.au,James Strathdee
jstanvi@gmail.com,Molly Stanvi
jsc83@bigpond.com,Cameron Cliff
jsawle12@gmail.com,Jason Sawle
jptrustedadvisor@gmail.com,Angela Abernethie
joshua.banks@me.com,Joshua Banks
josh.giamboi@planpartners.com.au,Eric Fake Example
josh.a.lawrence15@gmail.com,Joshua Lawrence
josb52@bigpond.com,Johannes (Jon) Bastiaans
joro@iinet.net.au,Joseph Rossi
jordanheyleyflett@gmail.com,Jordan Flett
jonemron@yahoo.com,Roger Phillips
jonea.owen@impactcare.org.au,Emily Crabb
jonathanreyes87@hotmail.com,Jonathan Reyes
jomum2three@hotmail.com,Cohen Bruggy
jollyhouse100@hotmail.com,Christopher Jolly
johnplussix@hotmail.com,John Butterly
johnjosier@gmail.com,Matthew Russell
johng47@bigpond.com,Victoria Greenland
johnandkoula@gmail.com,Koula Antoniou
john@jpjjmotteram.com.au,Joanne Motteram
john.parker8@icloud.com,John Alan Parker
john.kenny@kcc.nsw.edu.au,Jaime Lyons
john.earle8@bigpond.com,Ibolya Kiss
joelene.holland@benevolent.org.au,Ronelle Croft
joeleane74@gmail.com,Tristan Kinnear
jody.pilcher21@gmail.com,Jody Pilcher
jodiem14@hotmail.com,Jacob Reid
jodie.detoxcrew@gmail.com,Jordan Greck
jocelynszeto1967@gmail.com,Matthew Szeto
joannecarswell@internode.on.net,Caitlin Carswell
joanne@abis.org.au,Jean Pierre De Villecourt
joanne.s23@hotmail.com,Rebecca Smith
jmgoss@bigpond.com,Georgia Goss
jluscombe@wellways.org,John Munro
jlm3d@bigpond.com,Juliette Maxwell
jlaundes@bigpond.net.au,Luke Laundess
jjhkingsley@gmail.com,Jack Kingsley
jjessop@each.com.au,Cody Cecchin
jimericl@icloud.com,Eric Liu
jim.cheam@gmail.com,Ee Ming (Samantha) Cheam
jillraymond@activ8.net.au,Jill Raymond
jilleowen61@me.com,Jill Owen
jill.brumpton@gmail.com,Julian Brumpton-Ghoddusi
jhanna77@yahoo.com,Joseph Hanna
jhaangana@newhorizons.org.au,John Inglis Purnell
jford@sharecare.org.au,Alan Ngo
jessicajaycon@gmail.com,Deacon Boyd
jessicagreen944@gmail.com,Jessica Green
jessicagrech00@hotmail.com,Maryanne Grech
jessica.hosie@each.com.au,Grant Worland
jessica_dance18@live.com.au,Jessica Loughton
jeremy_atkinson1996@hotmail.com,Jeremy Ian Atkinson
jensmith2909@gmail.com,Hayden Smith
jenrozsa68@gmail.com,Jennifer Rozsa
jenradford82@gmail.com,Briana Radford
jennyvk@live.com.au,Luis Vieira
jennyspiller11@gmail.com,Dimitria Voulgarakis
jennylam101010@hotmail.com,Ze Hao (Jason) Chen
jennyharvey67@bigpond.com,Jennifer Harvey
jenny.r.tunstalll@gmail.com,Jennifer Tunstall
jenny.jensen@agboss.com.au,Carly Jensen
jenny.cheney@me.com,Jennifer Cheney
jennifer.kenny7@bigpond.com,Sean Kenny
jennifer.hails@bigpond.com,Joel Field
jenniejonesart@hotmail.com,Jennifer Crehan
jenna.dunstan@disabilitytrust.org.au,Susan Morgan
jeni.lewington@gmail.com,Jenifer Lewington
jenajones75@gmail.com,Jenny Jones (NSW)
jen.greenaway@yahoo.com.au,Drew Greenaway
jelan_90@hotmail.com,Hanna Ahmad
jeffrey.watt@benevolent.org.au,Ali Hassan
jeff.houssein@tridentpacific.com.au,Hulya Houssein
jeannuttall01@gmail.com,Michael John Nuttall
jeangeering@yahoo.com,Joseph Geering
jean.boxsell@au.ey.com,Ryan Boxsell
jds1710@gmail.com,Michael Spence
jctns2020@gmail.com,Terry Sullivan
jcoull6@bigpond.com,Justin Coull
jcb.buckley@gmail.com,Shinay Buckley
jbankin1@bigpond.com,Jamie Bankin
jazmin.ramos@flourishaustralia.org.au,Annaliese Constable
jaydenhar1998@gmail.com,Jayden Harrison
jaydemillo22@gmail.com,Jayde Millington
jayasooriah@yahoo.com.au,#NAME?
jasonphoenix69@gmail.com,Connor Ross
jasonday90@live.com.au,Jason Day
jason.evans90@yahoo.com,Jason Evans
jasands@ipstarmail.com.au,Amanda Sands
janicedoesyoga@yahoo.com.au,Janice Raymond
janetcurtain@hotmail.com,Janet Curtain
janelle.branch@bigpond.com,David Stower
janelle_hunt@bigpond.com,Tess Tynan
jane.fitzy76@hotmail.com,Adam Fitzgibbon
janaleen@optusnet.com.au,Janaleen Wolfe
jamie@hursthospitality.com.au,Jamie Hurst
jamesrhe@dodo.com.au,James Rheinberger
jamesaj@optusnet.com.au,James Anvia
james.maxwell.pollock@gmail.com,Owen Pollock
jamal.y95@hotmail.com,Jamal Abdulrahim
jaimie077@optusnet.com.au,James Birnie
jailovesyou@hotmail.com,Charlotte Fiefia
jaikelly@live.com,Jai Kelly
jacqui.wallace@gatewayhealth.org.au,Renata Stuart
jacqui-75@hotmail.com,Jacqueline Thompson
jacquelinecooley@yahoo.com.au,Matthew Dixon
jackman9301@gmail.com,Kevin Jackman
jackiejoogs@gmail.com,Jacqueline Joughalian
jackieford54@hotmail.com,Jayden Ford
jackieaust@yahoo.com.au,Leanne Austin
jach3010@gmail.com,Andrew Butler
j3zzawar1@hotmail.com,Erkan Dalan
j.bruce@theodorebruce.com.au,Diana Bruce
j_attfield@hotmail.com,Jonathan Attfield
ivor.hind@gmail.com,Hamish Bird
ivon12018@outlook.com,Ivon Davidson
itsanees27@gmail.com,Jaleb Waqar
ismailghada76@gmail.com,Karim De-Lancel
isimlay@gmail.com,Larson Le
irenewong0@gmail.com,Oi Chun Ha
irene.economou@me-well.org.au,Dawn Watson
ing@participateaustralia.com.au,William Chen
info@underwraps.net.au,Phillip Giles
info@supportcoordinationau.com,Huong Thi Nguyen
info@onecaresupport.net.au,Zahra Sawari
ibbosmail@gmail.com,Skye Ibbotson
ian.tasker@uws.edu.au,Ian Tasker
hwal3218@bigpond.net.au,Mary-Anne Rojek
husseyone@hotmail.com,Che Sunny Vincent Hussey
hunt.k5886@hotmail.com,Helen Austin
hugh.webb@lwb.org.au,Ashley Graham
hubbo55@hotmail.com,John Hubbard
ht69monaro.r.w.s@gmail.com,Raechel Ward
hoturoa@msn.com,Hoturoa Hawira
horsesrules19@gmail.com,Vanessa Rushworth
homa.1212@gmail.com,Romina Karwarz
holly.amy83@gmail.com,Holly May Amy
hippynesspaul@gmail.com,Paul Montgomerie
hennessylesley1@gmail.com,Paul Campbell
helin.kayabekman@hotmail.com,Helin Kayabekman
helen.boreham@me.com,Helen Boreham
heidi.pont@yahoo.com.au,Jaida Pont
heidi.daly@me-well.org.au,Richard Kapac
heidi_finn@outlook.com,Heidi June Finn
heatherbill@optusnet.com.au,Jordan Bill
heather.sander@bigpond.com,Wesley Balderson
hchung@y7mail.com,Hien Chung
hayley.kinghorn14@gmail.com,Jacob Kinghorn
hayleeswindells@hotmail.com,Haylee Swindells
haylee.plan@gmail.com,Keoni Swindells
hayden.kula1@gmail.com,Hayden Kula
hawkes27@optusnet.com.au,Janette Hawkes
hanginfromacloud@gmail.com,Elisha Flett
hamsteaks77@hotmail.com,Christina Green
haddonbrian55@gmail.com,Brian Haddon
gwoodman83@gmail.com,Glenn Woodman
guss88@hotmail.com,Robert Ellis
grumpycow12@outlook.com,Gavin Wrigley
gregandsuejames@bigpond.com,Lisa Weeks
grant_haywood@bigpond.com,Jude Haywood
gorand77@bigpond.com,Marko Dimitrijevic
goodgirl651@gmail.com,Annette Pitt
gnibbs@hotmail.com,Genevieve Healy
gmilenkovich@gmail.com,Goranka Milenkovich
gmeagher@wellways.org,Glenn Evans
gina.agius@fsunion.org.au,Samuel Tierney
gil.boehm@gmail.com,Byron Boehm
ghanagarroug@gmail.com,Ghana Garroug
ghaleb_20@hotmail.com,Ghaleb Al Qudsi
gfm469@gmail.com,Daniel Mcgrath
gerrym@planpartners.com.au,Gerry Fake Matthews
gerard_payne@hotmail.com,Gerard Payne
geraldine.a.k.edwards@gmail.com,Geraldine Edwards
georginaelias37@gmail.com,Georgina Elias
georgiag27@yahoo.com.au,Corey Heaton
george2448@hotmail.com,Vivian Ghaback
gdcavanagh73@gmail.com,Kalolo Kalolo
gazza@bigpond.net.au,Warren Noble
gayemezza@gmail.com,William Hilder-Childs
gavin@gavinfordmobiles.com.au,Gavin Ford
gavin.b.webb@hotmail.com,Gavin Webb
gautam.karki@afford.com.au,Akhter Muhammad Muhammad Hassan
gaserov65@hotmail.com,Gretta Serov
garyt54@hotmail.com,Gary Thomson
garyleech1111@gmail.com,Gary Leech
gary.lomax2@bigpond.com,Rhonda Lomax
garryanddonna54@gmail.com,Donna Roselt
ganesh.kakani@northcott.com.au,Bradley Wilson
galinajenkins@gmail.com,Galina Shmakoff
galia.roitman@gmail.com,Nathan Roitman
gabytroiano@hotmail.com,Christopher Troiano
frostfabian69@gmail.com,Fabian Frost
franklen@mac.com,Oliver Hobson
francesemiller1@icloud.com,James Berry
francesca.s1@optusnet.com.au,Joe Sindoni
fouziaakhter@hotmail.com,Mahib Mohiuddin
foreverdry@bigpond.com,Anthony (Tony) Hughes
forbes_austin_1112@yahoo.com.au,Forbes Kerry
fong_jason@yahoo.com,Jason Fong
flettvj@gmail.com,Carol-Anne Flett
fishandrella@bigpond.com,Paul Fisher
fionna@thedollerfamily.net,Chloe Doller
fiona.enjo@bigpond.com.au,Harrison Clode
filavery@yahoo.com,Alasdair Pirie
fgmdesign@bigpond.com,William Maxwell
feliciagalea85@hotmail.com,Ava Matutini
fearsome4@live.com,Jacob Earley
fazalmansook@gmail.com,Farshad Ahamed FAZAL HUSSAIN
fayehouston@icloud.com,Georgina (Gina) Law
fay3479@hotmail.com,Bruce Glase
fatgutink@gmail.com,George Sigg
faerielulah1@gmail.com,Faerie Fox
fabianmoran66@hotmail.com,Daniel Moran
eyeark@nextt.com.au,Aaron Bellchambers
ewebster00@gmail.com,Elliott Webster
evanjervis@hotmail.com,Nathan Outten
eva.lam@sjog.org.au,Xavier Telford
eturner@achieveaustralia.org.au,Monique Swan
es.cm@exemail.com.au,Michael Simpson
ernestdavies62@gmail.com,Rhonda Davies
erinfrog30@hotmail.com,Julie-Anne Hawthorn
ercildoune109@gmail.com,Jenni Miller
epifaniasenavellis@yahoo.com.au,George Senavellis
engmy003@mymail.unisa.edu.au,Thomas Engler
emtosya@gmail.com,Enes Tosya
emmajurjans77@gmail.com,Emma Jurjans
emmaandthomas@hotmail.com,Thomas McCarthy
emma@abilityconnect.com.au,Robert Beeken
emma.smith@each.com.au,James Stevens
emma.jenkin@each.com.au,Pamela Sinclair
emma.fraser@abilityoptions.org.au,Leon Andrews
emma.fogarty3@bigpong.com,Emma Fogarty
emilyjk84@gmail.com,Jesse Charles
eman1966@hotmail.com,Christine Naidu
em18@hotmail.com.au,Taj Christensen
elliscarissa1@gmail.com,Summah Ellis
ellis.susan@hotmail.com,Susan Ellis
elissa.e.merritt@gmail.com,Harry John Merritt
eliechalouhy@hotmail.com,Peter Chalouhy
elia0011@hotmail.com,Elia Abou-Haidar
eli_beth74@hotmail.com,Ersilia Certoma
elenayap@gmail.com,Elena Yap
eileen.xie@hotmail.com,Frank Ma
ehsanassadian17@gmail.com,Ehsan Assadian
ehelen72@yahoo.com,Helen Anne Edwards
eganca63@bigpond.com,Catherine (Cathy) Egan
edel.kellett@avivo.org.au,Gaena O'Connell
ectang81@outlook.com,Cameron Tang
earthy72@gmail.com,Julie Swafford
dsearle@interactionservices.org,Pamuk Rona
drew.a.nguyen@gmail.com,Trung Bun Nguyen
dpneu159766@bigpond.com,Patricia Neukother
dp.marrapodi@outlook.com,Zephyr Marrapodi
dougnsab@gmail.com,Tomas Schreiber
dorisglas@hotmail.com,Deborah Naden
dorienkay@hotmail.com,Dorien Karam
doodaa3@bigpond.com,Dianne Moussa
donelle@kuschert.com,Taisia Kuschert
dominiqueabra@outlook.com,Mercrucio Abra
dogiegone@gmail.com,Allison Dennis
dnsbritos@gmail.com,Sebastian Britos
dmurray2209@gmail.com,Jason Murray
dlwillemse@bigpond.com,Daniel Willemse
djctrixon@gmail.com,Clare Rixon
dixiedel.clayton@gmail.com,Dixie Clayton
dionnetpascal@gmail.com,Pascal Dionnet
dig17ee5@gmail.com,Leslie Bishop
diannekitson@yahoo.com.au,Dianne Kitson
dianegallsopp@gmail.com,Glen Morcom
diane.kyling@ucmh.org.au,Ronald Davis
diane.hancock1@bigpond.com,Rory McCann
dianao@optusnet.com.au,Diana Osbich
diana@pressecafe.com.au,Patrick El Hashem
dia969@live.com.au,Eric Neemia
di_1951@live.com,Mark Baker
dgwilliamultimo@yahoo.com.au,David Gwilliam
dgfwalsh@yahoo.com,Andrew Grant
dgalley2@bigpond.com,Michael Galley
dferry31@gmail.com,Destyni Ferry
dezy65@hotmail.com.au,Colin Tucker
devorose99@outlook.com,Rivkah Devorah Rosen
despina.moustos@gmail.com,William Constantine Moustos
dennigreen@hotmail.com,Malcolm Green
denis.glover02@gmail.com,Denis Glover
deebrewer2@msn.com,Beau Muir
dee.enn9@gmail.com,Dannye Radakovich Nunn
debsydubs@gmail.com,Deborah Carey Deckys
debbierolls59@gmail.com,Kristen Jamieson-Ohotin
debbiegrey067@gmail.com,Shane Patrick Grey
debbiee111@hotmail.com,Zachary Edmondson
debbie691@live.com.au,Deborah Ryan
deb@smithshall.com.au,Jayson Watson
deauzie@gmail.com,Paul Anthony Baker
ddias.1962@bigpond.com,David Dias
dazjh@hotmail.com,Daniel Hassen
dayle.r.lancaster@gmail.com,Dayle Lancaster
dawnmccormick1958@gmail.com,Dawn McCormick
daviredavire@hotmail.com,David Smith
davidlimn63@gmail.com,David Limn
davidgrabski@yahoo.com.au,David Grabski
davidandralda@bigpond.com,Dylan Greaves
david.wilson@justice.vic.gov.au,Vanessa Lucas
david.wheaton3@gmail.com,Elizabeth Wheaton
david.peteroulakis@northcott.com.au,John Chick
davemnguyen@gmail.com,David Nguyen
davemanser@outlook.com,Margaret Manser
datchau.nguyen@gmail.com,Justin - Nguyen- VIC
danny.noonan@icloud.com,Daniel Noonan
danielghazanfari@outlook.com,Daniel Ghazanfari
danielartup90@gmail.com,Raymond Blacklock
daniel@uptons.net.au,Jack Smith
daniel.palffy@abilityoptions.org.au,Max Bushnell
dani.fender@flourishaustralia.org.au,Stephen Willis
damien.dalene@gmail.com,Damien Rooney
damianwapling@gmail.com,Damien Wapling
d.mlloyd@bigpond.net.au,Mark Neal
cute2boot@icloud.com,Jasper Norman
ctnewman@bigpond.com,Carl Newman
crystalnindy2010@gmail.com,Indy-Leigh Jones
crpswarrior149@yahoo.com.au,Michael Manttan
crissenem@gmail.com,Caley Enticott
crissamf@gmail.com,Taylor Short
crazypavlous@hotmail.com,James Pavlou
craig.hempstead@qr.com.au,Lee Hempstead
cpokorny@ozemail.com.au,Tundra Pokorny
cpat27@iinet.net.au,Matthew Patmore
court4408@yahoo.com,Cadence Massey
costellokj9@gmail.com,Janet Costello
cosmicsw@hotmail.com,Emma Wilson
corinnemorgan1903@gmail.com,Corinne Morgan
corenejay@gmail.com,Hollie Moore
corbyterry@gmail.com,Aaron Corby
colorspectrum.1475@gmail.com,Riley Kelly
colonyshaun2@gmail.com,Jamie Bray
colin.french7@bigpond.com,Janelle French
colcol52@hotmail.com,Gregory Vickers
cmoore@autismspectrum.org.au,Jarrad Moore
clnt@msn.com,Clinton Small
claudia.bauerle@yahoo.com.au,Carolina Tejo
clare.georges@benevolent.org.au,Damien Slattery
clare.fryer777@gmail.com,Clare Fryer
claire.pat.welch@gmail.com,Claire Welch
claire.kuhnell@each.com.au,Dawt Hlei Tial
cking0238@gmail.com,Cheryl King
ckhoury68@gmail.com,Simon Khoury
cjmacneil@live.com,Daniel Clissold
cjd67qld@gmail.com,Stephanie Delamare
cindyisbright@gmail.com,Koroush Badirkhani
chrysavee@live.com.au,Thanasi Psyhogios
christinemorel72@gmail.com,Angela Evangelinos
christine.kaihea@gmail.com,Christine Kaihea
christiansummerhayes@gmail.com,Christian Summerhayes
christianperalta11@gmail.com,Christian Peralta
chrissam23@hotmail.com,Anthony Stramandinoli
chloey.ayoub@ndis.gov.au,Mohamed Jihed Chater
chloe.maree.mccauley@gmail.com,Chloe McCauley
cherylfabish@yahoo.com.au,Lauren Fabish
cherylacollins17@gmail.com,Lisa Collins
cheryl@connormaclean.com,Connor Maclean (NSW)
cherti10@bigpond.com,Rita Cherti
cheriek966@msn.com,Matt Aitken
chellebb@gmail.com,Michelle Beeby
cheekyregina73@hotmail.com,Maria Biniaris
charmaine@auroracoordination.com.au,Mark Brady
cgauthier@fairfieldcity.nsw.gov.au,Yves Gauthier
ccube009@gmail.com,Shreyas Srinivasan
cconacher@3dsafety.com.au,Sam Anthony Conacher
cathy.naing2@gmail.com,Laura Naing
cath.mcgrath@bigpond.com,Lachlan McGrath
catemaree@hotmail.com,Catherine Sharp
cassie_bland@hotmail.com,Cassandra Bland
casperevans04@gmail.com,Jasamine Evans
carolynwoodpeck@gmail.com,Dylan Peck
carolineday64@gmail.com,Caroline Day
carnold@wellways.org,Robert Harvey
carlyemont@gmail.com,Ryder Tozer
candidajune1982@gmail.com,Candida (Candi) Atkinson
calost21@hotmail.com,Cassandra Strike
cafshae@gmail.com,Grace Ryan
c.simmons@outlook.com.au,Christopher Simmons
bundilla1@outlook.com,Phillipa "Pip" McFadzen
bumpa24@dodo.com.au,Robert Matrai
bullsnot@bigpond.com,Cassandra Collins
bulldog677@bigpond.com,Jai Warner
budda008@outlook.com,Brad Johnson
bucko127@westnet.com.au,Holly Buckeridge
bubba.bling@hotmail.com,Carol Meredith
btraynor1987@gmail.com,Bonnie Traynor
bsratanatray@yahoo.com.au,Jacinda Ratanatray
brypet008@gmail.com,Bryce Petersen
brooks@idx.com.au,Kerry Brooks
brookleaagedcare@gmail.com,Kathleen Beaton
bronwyn@fixwindows.biz,James Carroll
bronwyn.furner@outlook.com,Trent Martin
bron_omalley@yahoo.com.au,Travis Carson
broke23@msn.com,Caleb Lambert
brenrose27@hotail.com,Toby Baker
brendoncdonohue@icloud.com,Brendon Donohue
brendae297@gmail.com,Brenda Evans
brenda2641@hotmail.com,Thomas Jackson
bree2975@outlook.com,Bree Pick
bree.lowther@ndis.gov.au,Sandra Aslin
breannalouise788@gmail.com,Breanna Eaton
brandonrutland@tpg.com.au,Brandon Rutland
bradm90210@gmail.com,Bradley Marshall
bradley-jeffery_1984_2015@hotmail.com,Bradley Jeffery
boothalicia@hotmail.com,Alicia Booth
bonagura1996@gmail.com,Robert Costa
bombermarie@hotmail.com,Tamara Mckeown
bmschuberg99@gmail.com,Belinda Schuberg
bmckee@veritel.com.au,Barry McKee
bmaddick@iinet.net.au,Bruce Maddick
blue_3mercury@yahoo.com,Joshua Tjong
blondebag73@hotmail.com,Anne Gatley
blazelly@gmail.com,Peter Kelly
blake.seinor36@gmail.com,Blake Seinor
bjstapo25@gmail.com,Bailey John Bosco(Stapleton)
bjo2412@hotmail.com,Brett Johnston
bjnight@outlook.com,Mitchell Stephen Nightingale
bizeeee3@hotmail.com,Sophie Smith
biancapaulsen@arafmiqld.com.au,Sarah Trudgian
bhargreaves@dsa.org.au,Helen Irimia
bhandarisonia97@gmail.com,Sonia Bhandari
bhagatmeena15@gmail.com,Navraj Bhagat
beyondtoday@bigpond.com,Kym Soppa
beyfus.henry@hotmail.com,Henry Beyfus
bewer53@gmail.com,Bernice Ewer
bevt422@yahoo.com.au,Beverley Tang
bevdavies1952@gmail.com,Beverley Davies
bettinamatters@hotmail.com,Gracie Beattie
bethlockyer@gmail.com,Stephen Lockyer
bertram57@aapt.net.au,Nigel Moody
benwillinski1986@yahoo.com,Benjamin Willinski
benosd98@gmail.com,Benjamin Donnellan
benjworld@yahoo.com.au,Harrison World
benjosh12@bigpond.com,Matthew Duncan
benjamin.haley@flourishaustralia.org.au,Simon Holt
bellistic_miss@hotmail.com,Bailey Dunmore
bellegaz@hotmail.com,Emily Reeves
belindawilliams03@hotmail.com,Adison Williams
belindas_25@hotmail.com,Joseph Spiteri
belinda.taylor5@bigpond.com,Christopher Taylor
belinda.field3@optusnet.com,Shamala Field
bekivill3@gmail.com,Joshua Maynard
beckyleecheno@gmail.com,Rebecca Chenoweth
beckad79@yahoo.com.au,Linda Delaney
bec.arundel1416@gmail.com,English Rose Blyton
bdyoung20@hotmail.com,Angelina Young
bdoonan@y7mail.com,Belinda Doonan
bassams@iccare.com.au,Ali Al-Zuhairi
bapatte@tmr.qld.gov.au,Bobbie-Jo Patterson
bandito@bigpond.net.au,Colin Scott
balogs@exemail.com.au,Angela Balog
bachrottrotties@hotmail.com,Christine Young
azrasehic1976@gmail.com,Muamer Sehic
avedissian04@hotmail.com,Lisa Avedissian
augustinnguyen@hotmail.com,Stefan Nguyen
atkins1999_1999@yahoo.com,Benjamin Atkins
atifa_sakhidad19@yahoo.com,Nasrullah Sakhidad
atawhaikids@optusnet.com.au,Sharon Molony
assadhe@yahoo.com.au,Assdollah Heidarishahi
asresahagn34@yahoo.com,Hailay Gebremariam
ashleyjmartin@bigpond.com,Nicholas Martin
ashhass@hotmail.com,Ashley Hassett
as.alisonskinner@gmail.com,Alison Skinner
aryumon@gmail.com,Akiko Akiko  Ryumon
arystav@gmail.com,Arsenios Stavropoulos
artyone2012@live.com.au,Aleinor Manawaiti-Smith
arna.sarkis@gmail.com,Nova Sarkis
aradburn@gmail.com,Alexandra Radburn
anpirani@yahoo.com.au,Adam Pirani
annmaree53@hotmail.com,Annmarie McAllister
annieshep2009@gmail.com,Linda Cairns
annavenios@optusnet.com.au,Joshua Venios
annalisac@wcig.org.au,Ian Groves
annakatralis@gmail.com,Elena Katralis
annabellejwaldron@gmail.com,Louis Fourie
anieta.kennedy@hotmail.com,Anieta Kennedy
angusterman@gmail.com,Angus Terman
angeleyes_389@hotmail.com,Abigail Morris
angelawilson1969@outlook.com,Luke Wilson
angela68cavender@gmail.com,Ruby Gaston
angela1@bigpond.net.au,Madison Hammond
angela.ruspandini@lifestyleslutions.org.au,Blake Goodsell
angela.jonassen@gmail.com,Angela Jonassen
angela.gallagher@multicap.org.au,Benjamin Guan
ang-30@hotmail.com,Rylee Lines
andrewjkelly26@gmail.com,Andrew Kelly
andrew.green@deafservices.org.au,Scott Allen
andre.maddocks@flourishaustralia.org.au,Nelson Colmenares
anamark@optusnet.com.au,Ana Corral-Kelly
amyderrick@gmail.com,Amy Derrick
amy@mazzarol.net,Amy Mazzarol
amira.75@hotmail.com,Amira Mohamed
amir.pilehvar@yahoo.com,Amir Pilehvar
amina.mohamedali@outlook.com,Shane O'Connell
amclean7262@gmail.com,Debra McLean
ambrosereisch210@gmail.com,Madlein Reisch
amarkauskas1@gmail.com,Andreas Markauskas
amandar1972@icloud.com,William Waite
amandagasman@outlook.com,Amanda Contarino
amandac8@bigpond.com,Amanda Halit
amanda.riches@breakthru.org.au,Alick-Henry Waite
amanda.lyons6@bigpond.com,Nicholas Lyons
amanda.dixon@flourishaustralia.org.au,Jennifer Rowe
allisonvo_624194@yahoo.com,Allison Vincent-Ohmann
allisonrotgans@hotmail.com,Allison Rotgans
alli.skye@hotmail.com,Alli Skye
allacor@optusnet.com.au,Donald Lamb
alisonmhyde@gmail.com,Rodney Hyde
alisondibben@hotmail.com,Geoffrey Dibben
alicejoshuajackson@gmail.com,Jackson Cottam
aliah1@bigpond.com,Alia Halabi
ali.okeeffe@sjog.org.au,Fiona Sharpe
alexisskawronski@westnet.com.au,Alexis Skawronski
albert.shlemon@homecaring.com.au,Fatuma Mohamed
alan.woodall@bigpond.com,Lois Woodall
al_marshall@cerebralpalsy.org.au,Kayla Roberts
akearney@windgap.org.au,David Blackmore
ajnos72@gmail.com,Patrick Haigh
ajclemann@gmail.com,Anthony John Clemann
aihuafang7836@gmail.com,Jasmine Li
adympedicini@gmail.com,Christian Pedicini
adrianmtchu@gmail.com,Adrian Man-Tai Chu
adrenalineno26@gmail.com,Dermott May
admin@truehero.com.au,Anthony Dwyer
accounts@bluelinefabrication.com.au,Karen Thomas
abriggs@umenco.com,Thomas Briggs
aaron.mcdonald@rfq.com.au,Cody O'Sullivan
aaatchoo@gmail.com,Alex Rice
a.tyas@outlook.com,Ann-Maree Belbin
7mralam@gmail.com,Ramin Alam
64brian@tpg.com.au,Jerome Etteridge
3dsatirist@gmail.com,Alan Weinstein
3104paul.pg@gmail.com,Alison Loseby
13503488808@126.com,Lareinas GuoYing Zhang
