Salam Hoblos,zeinahoblos@hotmail.com,,,,
Courtney Norton,zdnorton@hotmail.com,,,,
Albert Kim,ywkimau@naver.com,,,,
Madison Young,youngmadi21@gmail.com,,,,
Ercan Elveren,ying@adsi.org.au,,,,
Alara Karabatak,yasu_dwette@hotmail.com,Vic,,,
Parwin Neeamuthkhan,yasmineneeamuthkhan@gmail.com,VIC,,,
Phillip Xenos,xerox.me@yahoo.com,NSW,,,
Adrienne Watson,xanadu134@bigpond.com,QLD,,,
Glen Morrow,writetoglen@me.com,,,,
Wenjing Bao,wj_bao@hotmail.com,,,,
Allira Whitham,willow_starhawk@hotmail.com,NSW,,,
Stefan Spirovski,williamsotutaha@hotmail.com,VIC,,,
Kara LeFrancke,will4874@hotmail.com,NSW,,,
Michelle Williamson,wheels0079@yahoo.com,,,,
Wendy Evans (NSW),weneva59@gmail.com,NSW,,,
Wendy Fraser,wend1953@gmail.com,,,,
Brett Abrahams,wells_jkbb@yahoo.com.au,,,,
Wei Ji Wong,weijiw@yahoo.com.au,VIC,,,
Wayne Walton,waynewalton67@outlook.com,NSW,,,
Wayne Maher,wayne.maher@optusnet.com.au,,,,
Chealsea Wilton,warjo1811@optusnet.com.au,WA,,,
Albert Slefendorfas,wapownall@dcsi.net.au,VIC,,,
Julia Evershed,vyl@footprintsinc.org.au,QLD,,,
Victoria Brander,vmbrander@gmail.com,VIC,,,
Joseph Nguyen,vmaria0808@yahoo.com,,,,
Michael Randall,vlrmarjarmmr@hotmail.com,NSW,,,
Dominic Chau,vivienlim86@hotmail.com,,,,
Vivien Bartel-Jost,vivienbarteljost@outlook.com,,,,
Leah Urban,vivian.urban0@gmail.com,VIC,,,
Amy Diaz,visionsofcolour@bigpond.com,,,,
Jennifer Barber,victoria.wielgosz@ndis.gov.au,VIC,,,
Mary-Kathryn Smyth,vicky@rrds.org.au,,,,
Brian Lee,vickielee5361@gmail.com,,,,
Vickie Hudson,vickie.hudson.storm@gmail.com,NSW,,,
Jason Capper,vicki@burrundalai.org.au,NSW,,,
Ian Palmer (exited),vicki.palmer@hotmail.com,,,,
Kobi Stewart,vicdavey89@gmail.com,,,,
Marianna King,vessy21@hotmail.com,,,,
Mary Pollock,veronicadove541@gmail.com,VIC,,,
Nicolas Empeigne,veroempeigne@hotmail.com,,,,
Vanessa Dinatale,vdi@student.unimelb.edu.au,VIC,,,
Vaughan Roles,vaughan.roles@icloud.com,,,,
Maria Giannopoulos,vanthopoulos@hotmail.com,,,,
Vanessa O'Neill,vanessabellao@icloud.com,NSW,,,
Vanessa Ann Manzano,vanessa.manzano73@gmail.com,,,,
Jaid Chang,valerie_9_1@hotmail.com,,,,
Charlotte Valeri,valeri.twins.ndis@outlook.com,QLD,,,
Jenny Brody,v_hnsn@hotmail.com,Vic,,,
Ula Falanga,ufalanga@bigpond.net.au,NSW,,,
Troy Ellis,troycity@live.com.au,,,,
Tristram Wake,tristramwake@gmail.com,NSW,,,
Renae Jackway,tristenneisaacson@gmail.com,SA,,,
Jessica Reed,trishelle@tpg.com.au,,,,
Trinity Rose Andrews,trinity.rose.andrews@gmail.com,QLD,,,
Trenear Tarrant,trenear.tarrantcom@gmail.com,,,,
Jack Cox,treesa.parrish@barkuma.com.au,SA,,,
Joshua David Iacovelli,tracyvelli@gmail.com,,,,
Justin Martinez,tracy_2665@msn.com,NSW,,,
Ashton Burns,tracieburns@hotmail.com,,,,
Christopher Brent Palmer,tpalmer77@bigpond.com,,,,
Arianna Gadea,toulagadea@optusnet.com.au,,,,
Delia Moodie,toptroop@gmail.com,NSW,,,
Dayalan Moonsamy,tonymoonsamy@yahoo.com,VIC,,,
Lynette Nelson,tony.nelson3@det.nsw.edu.au,NSW,,,
Tony Doevendans,tony.doevendans@gmail.com,,,,
Chloe Rowlands,tony_638@hotmail.com,NSW,,,
Richard Ward- SA,tnrward2@bigpond.com,,,,
Dayna Kostrz,tkostrz@live.co.uk,SA,,,
Alex Pell,tjcool70@hotmail.com,,,,
Adam Polizzi,tinapol@bigpond.com,,,,
Gary Jankowski,tinamacdonald1@hotmail.com,,,,
Zachary Barnicoat,tinabarnicoat@gmail.com,QLD,,,
Paula-Lee Buckwell,tiger_loves_paula@hotmail.com,,,,
Jack Ball,tiffany.wiles@bigpond.com,QLD,,,
Samuel Pakoti,thsevethday@hotmail.com,,,,
Nardia Cluff,thowe16@eq.edu.au,QLD,,,
Mattlock James Harvey,thornelee64@gmail.com,QLD,,,
Jimmy James,thomsonhellyn@gmail.com,NSW,,,
Thomas Morgan,thom.morgan85@gmail.com,VIC,,,
Aaron George,thinkaboutitfirst@outlook.com,NSW,,,
Joel Sampson- Hennessey,therese.hennessey@bigpond.com,QLD,,,
Sandra Theodore,theo31@bigpond.com,,,,
Thomas Ferguson,theferg007@gmail.com,NSW,,,
Tyler Cramp,the_angels@optusnet.com.au,,,,
Terrence (Terry) Lord,terrylord59@yahoo.com.au,VIC,,,
Mira Lawson,teresalawson90@hotmail.com,,,,
Adam-Luc (Adam Kimm) Kimm-Stoten,teresakimm@yahoo.com,QLD,,,
Georgia Van de Velde,teresa.vandevelde@svha.org.au,VIC,,,
Luc Fisher,tegan-fisher-2013@hotmail.com,QLD,,,
Abbhilash Tedla,tedlaraghu@gmail.com,,,,
Amy Elizabeth Wright,tdwright@tpg.com.au,QLD,,,
Tony Knight-Gibson,tcp22@bigpond.com,,,,
Taylah McHugh,taylahmc25@gmail.com,VIC,,,
Tayla Brandon,tayla.brandon@hotmail.com,VIC,,,
Avery Carroll-Searle,tanyacarroll78@outlook.com.au,,,,
Patrick Alford Underwood,tania.curlis@gmail.com,VIC,,,
Tania Hay,tananeptyltd@bigpond.com,WA,,,
Bryce McCarron,tammienye@bigpond.com,NSW,,,
Tammy Hahle,tamhahle@y7mail.com,VIC,,,
Thanh Pham,taijohnnguyen@hotmail.com,VIC,,,
Owen Moncrieff,t.moncrieff@gmail.com,QLD,,,
Lisa Wong,swally88@hotmail.com,,,,
Suzanne Mussillon,suzannemussillon@gmail.com,NSW,,,
Jeremy Adler,suzanne.adler@gmail.com,,,,
James Wheeler,susanwheeler1953@gmail.com,,,,
Amanda Carroll,susanparkerseng@gmail.com,QLD,,,
Ethan Hunt,susannehunt@y7mail.com,NSW,,,
Susan Calf,susanlcalf@gmail.com,,,,
Benjamin Hackwell,susanhackwell@gmail.com,VIC,,,
Susan Moore,susanannemoore@iinet.net.au,,,,
Hugh Grant,susan@intelligentproperty.net.au,SA,,,
Chelsea Holt,surfsundy1@yahoo.com,QLD,,,
Jonathan Gladstone,supersusan100@hotmail.com,NSW,,,
Suja Varghese,suja.syd@gmail.com,,,,
Andrew Pham,suely.lu@gmail.com,NSW,,,
Graeme Grimston,suegrimo@hotmail.com,,,,
Susan Bensted,suebensted@hotmail.com,VIC,,,
Susan Stergo,sue@stergo.me,,,,
Christopher Eulenstein,sue@empowerability.org.au,,,,
Charlotte Tilsley,sue.tilsley@gmail.com,,,,
Daniel Ussher,su.soanes@aboutinclusion.com.au,NSW,,,
Madison Rhodes,stutash@tpg.com.au,,,,
William Stockdale,stockdale.sarah.j@edumail.vic.gov.au,VIC,,,
Sophia Townend,steventownend@bigpond.com,,,,
Hayden Prior,stevenp@westnet.com.au,,,,
Steven Wayne Carlyle,steve54@live.com.au,QLD,,,
Stephen Shiels,stephen.shiels28@hotmail.com,,,,
Stephen White,stephen.m.white@det.nsw.edu.au,,,,
Stephanie Agnew,steph.agnew@hotmail.com,VIC,,,
Stanley Bell,stanbell2010@gmail.com,SA,,,
Boyd Haynes,staceyhaynes35@gmail.com,QLD,,,
Frances Stacey,staceyfrankie@yahoo.com,,,,
Stacee Krznaric,stacee_22@hotmail.com,,,,
Murray George,sqwyd@bigpond.com,VIC,,,
Dianne Juleff,squidggye@hotmail.com,,,,
Rhianna Soutar,soutarbruce@yahoo.com.au,QLD,,,
Anqi (Angie) Dong,sophie.randall@forsight.org.au,NSW,,,
Sophie Pronger,sophie.pronger@gmail.com,,,,
Alexandros Protonotarios,sophiaventouris@gmail.com,NSW,,,
Sonya Healey,sonyahealey.syd@gmail.com,NSW,,,
Debra Barwick,sonia.efendy@dementia.org.au,QLD,,,
David Scerri,sofia.pensi@breakthru.org.au,VIC,,,
Serena Sobb,sobbab@tpg.com.au,,,,
Fiona Wilson,snowys3@bigpond.com,QLD,,,
Nalinee Kowitchindachai,snontasuti@hotmail.com,,,,
Safie Mouakkassa,smouakkassa@yahoo.com.au,VIC,,,
Elizabeth Smiley,smileysteve58@yahoo.com.au,QLD,,,
Karen Messmer,smessmer@bigpond.com,qld,,,
Shaahid Lulat,slulat@outlook.com,,,,
Tracey Sloan,sloanrangers3@bigpond.com,VIC,,,
Samantha Matthews,slmatthews123@outlook.com,QLD,,,
Geeta Lele,slele@optushome.com.au,,,,
Jessica Dowd,sldowd@optusnet.com.au,,,,
Noel Rowe,skye.rowe92@gmail.com,,,,
Chloe Emily Williamson,skwilliamson78@dodo.com.au,,,,
Stephen Weldon,sjweldon@tpg.com.au,QLD,,,
Simon Thomas,simonthomas888@gmail.com,,,,
James Garland,simonegarland888@gmail.com,NSW,,,
Gautam Vir,simmisdo@yahoo.com,NSW,,,
Yasmin Cheuk,silviacheuk@hotmail.com,,,,
Silvana Pavlovic,silvanapavlovic@hotmail.com,VIC,,,
Siew nen Khoo,siewnen.khoo@bigpond.com,,,,
Matthew Sheridan,sheridans@aol.com.au,,,,
Sheree McClelland,sheree.mcclelland@icloud.com,,,,
Sherrille Stephens,shellyleslie56@gmail.com,,,,
Luke Reeve,sheila_reeve08@msn.com,,,,
Ripley Hart,shazzyg93@gmail.com,SA,,,
Marshall (Holly-Anne) Malpass,sharonm03@aussiebb.com.au,,,,
Rebecca Woodhouse,sharon.taafe@neaminational.org.au,,,,
Deborah Hodges,sharon.farrell@genu.org.au,VIC,,,
Shahram Jazan,sharamj@mdaltd.org.au,,,,
Bobby (Harry) Xenidis,shannon.woolacott@planpartners.com.au,NSW,,,
Raghav Shanker,shanker_purva@yahoo.com.au,,,,
Kruz Dolan,shanedi77@hotmail.com,,,,
Jacob O'Shea,shane.oshea@bigpond.com,,,,
Tupuivaha Samate,selu.samate@hotmail.com,NSW,,,
Steven Ryan,sean.murray@aftercare.com.au,NSW,,,
Alex Driscoll,seahorsebaby@gmail.com,NSW,,,
Scott Wilson,scottywilson50@gmail.com,,,,
David Munro,scmunro@yahoo.com.au,,,,
Dante Greaves,schultzdogg@hotmail.com,,,,
Warren Dennis,sbinting@hotmail.com,,,,
Joe Hannay,sbeydoun88@gmail.com,,,,
Mason Saul,saulfamily66@gmail.com,SA,,,
Mariam Berjaoui,saraosman0125@hotmail.com,VIC,,,
Sarah Melva McDonald,sarahwahibe@icloud.com,Vic,,,
Phyllis Cini,sarah.soyal@breakthru.org.au,VIC,,,
Sarah Phillpott,sarah.phillpott@live.com.au,NSW,,,
Michael Lindsey,sarah.matta@me-well.org.au,,,,
Ricky McNamara,sarah.jomantas@genu.org.au,VIC,,,
Sarah Baldry,sarah.baldry94@gmail.com,,,,
Maheswaran Thannimalai,santee6@gmail.com,NSW,,,
Tamara Milich,sandracaporella3@gmail.com,SA,,,
Sharon Nava,sandra@sbfp.com.au,,,,
Hon Yuen,sandra.p.chan@gmail.com,VIC,,,
Peter Burns,sanderson.marilyn@gmail.com,NSW,,,
Matthew James Thomas,sanderling@optusnet.com.au,SA,,,
Andrew Iannella,sandee134@bigpond.com,NSW,,,
Khang Dinh Le,sanat.heweston@vinnies.org.au,NSW,,,
Allison Milne,samsmilne@bigpond.com,VIC,,,
Samantha Di Quinzio,samanthadiquinzio@gmail.com,VIC,,,
Stephen Jolliffe,salma.ghadhban@aftercare.com.au,NSW,,,
Noah Hick,sally_jones2@msn.com,,,,
Sharyn Kleinhanss,s.e.dickenson@bigpond.com,,,,
Sally Cragg,s.cragg@bigpond.com,,,,
Ryan Kirkby,ryankirkby2@gmail.com,NSW,,,
Alivia Hunt,ryan.chloe@gmail.com,,,,
Kevin Crowley,rusty909@optusnet.com.au,,,,
Craig Jennings,rujun.yi@mindaustralia.org.au,SA,,,
Arun Kumar,rudra_kumar@hotmail.com,,,,
Iman Shaaya,rubitashrestha@mdsi.org.au,NSW,,,
Ali Ragab,rsuson.edu@gmail.com,VIC,,,
Bailey McDougall,rsharma@uniting.org,NSW,,,
Kevin Singh,rosy_manjeet@yahoo.com,,,,
Kurt Jackson,rossjacko66@bigpond.com,VIC,,,
Fred Bissett,ross.exton@me-well.org.au,VIC,,,
Roslyn Leighton,roslynleighton@gmail.com,VIC,,,
Tom Argiropoulos,rosietorn@optusnet.com.au,,,,
Roshan Johal,rosh.nosce.te.ipsum@gmail.com,VIC,,,
Rosemary O'Brien,roseobrien77@hotmail.com,VIC,,,
Aladdin Salim,roseanna.barletta@afford.com.au,,,,
Annabelle Guzman,ronna.a.g@gmail.com,NSW,,,
Romani Girgis,ronfaragss@mail.com,,,,
Elizabeth Berry,rogerlizberry@gmail.com,VIC,,,
Rodney Stern,rod@rsitc.com.au,,,,
Robyn Connor,robyn.a.connor@gmail.com,VIC,,,
Andre Seculovic,robwatt@live.com.au,,,,
Shirley Robertson,robertsonshirley83@yahoo.com,,,,
Robert Wendel,robertshawnwendel@gmail.com,NSW,,,
Robert Connor (430333167),robertconnor_76@hotmail.com,NSW,,,
Jia Shu Xu,rmit.es.lin@gmail.com,VIC,,,
Ravi Coutinho,rk_coutinho@hotmail.com,,,,
Esther Eschauzier,rivetair@bigpond.com,NSW,,,
William De Souza,rivera.william@gmail.com,,,,
Sher Khan,rish81@yahoo.com,NSW,,,
Daniel Bechara,rimabechara@hotmail.com,,,,
Robert Collins,rikky.collins@gmail.com,,,,
Graeme Schliebs,rikki.schliebs@hotmail.com,VIC,,,
Ulricke Vella,rickivella@hotmail.com,,,,
Richelle Street,richellestreet@gmail.com,,,,
Robert Cairns (430008862),richardcairns@bigpond.com,,,,
Richard Fuller,richard.fuller1953@gmail.com,,,,
Rhianna Malas,rhiannamalas@gmail.com,VIC,,,
Loclan Anderson,renee_anderson@email.com,,,,
Zachary Adam Knight,renaec@yfs.org.au,QLD,,,
Renae Pearlman,renae.pearlman@me.com,,,,
William Turner,redminiwagon@hotmail.com,QLD,,,
Rebecca Kievsky,rebecca.kievsky@gmail.com,NSW,,,
Jayden McIntyre,rebecca.clark@mercyconnect.org.au,NSW,,,
Robyn Bryson,rbryson3@bigpond.com,,,,
Robert Pike,rbpike14@outlook.com,SA,,,
Narelle Young,razorproperty@dodo.com.au,,,,
Raymond Anjoul,rayanjoul@hotmail.com,,,,
Raymond Adams,ray.adams@acer.org,VIC,,,
Richard (Rory) Wilson,rapwils@gmail.com,,,,
Agid Khawsho,rannakhaushu93@gmail.com,,,,
Nour Kassar,ranaelchami96@gmail.com,NSW,,,
Celia Abo Aita,ramiabarakat1@gmail.com,,,,
George Saad,ramez@boltbuilding.com.au,,,,
Marinella Halwes,ralph-01@hotmail.com,SA,,,
Rinish Raj,rajrinish@yahoo.com.au,NSW,,,
Krish Kapoor,rajeevkapoor78@gmail.com,VIC,,,
Jasmin El-Naji,raed2004@live.com.au,VIC,,,
Rachel Larionoff,rachellarionoff@yahoo.com,VIC,,,
Racheal O'Raw,rachealoraw630@gmail.com,NSW,,,
Rachael Inglis,rachaelinglis76@gmail.com,QLD,,,
Rhiannon Hart,r.hart2000@yahoo.com,,,,
Ian Shapland,pvandrunen@tcota.com.au,QLD,,,
Wayne Manwaring,ps8454p2p@gmail.com,,,,
Daniel Jones,promotec@iinet.net.au,QLD,,,
Carlos Blanch,princecarlos.nl@gmail.com,NSW,,,
Robert Post,posty6964@yahoo.com.au,VIC,,,
Bryan Greenslade,poss-81@hotmail.com,QLD,,,
Blake Hallinan,pmha121@gmail.com,QLD,,,
Paul Rice,pkrice_2000@yahoo.com,,,,
Steven Astbury,pjayne66@gmail.com,VIC,,,
Peter Irvine,pir89085@bigpond.net.au,NSW,,,
Gianluca Ambrosino,pina.ambrosino@icloud.com,,,,
Olivia Silva,philippa@bigpond.net.au,,,,
Phillip Cream,philc1@live.com,VIC,,,
Elle Beauchamp,philandjo5@gmail.com,,,,
Joseph Jomaa,pgwestern@opg.nsw.gov.au,,,,
Paul Barnes,pgbarnes@hotmail.com,VIC,,,
Petula (Pat) Wilson,petulajwilson@gmail.com,,,,
Robyn Allen,peterallen4@bigpond.com.au,,,,
Peter Wells,peter.wells17@bigpond.com,,,,
Peta Turner,peta.turner@gmail.com,,,,
Account Name,Person Account Email,Billing State/Province,,,
Alexander Graham,penny.graham@hotmail.com,,,,
Paul Elliott,pelliott@dsa.org.au,,,,
Kelly Carkeek,pekinpatch@yahoo.com.au,,,,
Pearl Yew,pearlyew123@hotmail.com,VIC,,,
David Spall,pdaengchart@uniting.org,,,,
Alexander Langley,pauline.denman62@gmail.com,,,,
Paul Woodberry,paulduncanwoodberry@gmail.com,VIC,,,
Jenny Greentree,paula.rosser@lwb.org.au,NSW,,,
Steven Oram,patrik08@bigpond.com,NSW,,,
Connor Browning,patrickwilliambrowning@hotmail.com,QLD,,,
Patrick Ballard,patrickballard06@gmail.com,NSW,,,
Rebecca Kertesz,pat.grandy@gmail.com,,,,
Harrison Parker,parkerkl@hotmail.com,,,,
Pamela Wootton,pamwootton71@icloud.com,NSW,,,
James Steward,pamelapeach01@yahoo.com.au,,,,
Troy Palmer,palmerkathy18@gmail.com,QLD,,,
Katherine Webb,pakakode2004@icloud.com,,,,
Valentino Pagura,owl_loveyou@hotmail.com,,,,
Jean Richters,oscarandmilo@bigpond.com,QLd,,,
Gulaangga Williams,oliviawilliams697@yahoo.com,NSW,,,
Zane Masri,ola.karim2805@hotmail.com,VIC,,,
Omar Issa,o.issa@hotmail.com.au,,,,
Nikson Hill,nwplhill13@bigpond.com,Qld,,,
Cheryl Sharpe,nursecheryl_32@yahoo.com,NSW,,,
Chantelle Seymour-Smith,nsey6710@gmail.com,,,,
Longnan Wang,noyapf179@gmail.com,,,,
Aleena Kara-Ali,normakaraali@hotmail.com,,,,
Nathan Sheen,noni.hardes@breakthru.org.au,,,,
Justine Fenske,nolesthompson@hotmail.com,,,,
Annette Nolan,nnttnln@yahoo.com.au,,,,
Francisco Cruz,nm_creus@hotmail.com,,,,
Bijin Ni,nism007@163.com,,,,
Byron Carlin,nilrac01@gmail.com,,,,
James Pollard,nikkipollard007@gmail.com,NSW,,,
Tyler Stapleton,nikkibosco1@gmail.com,,,,
Nicole Haigh,nikkiarnold1@me.com,QLD,,,
Jack Burke,nikki.herrick@gmail.com,,,,
Kai Starling,nicolestarling2515@hotmail.com,,,,
Junia Johnston,nicolejobling78@gmail.com,QLD,,,
Deanna Muller,nicky.skinner@iagroup.org.au,VIC,,,
Nicholas Birznieks,nickbirzo@hotmail.com,,,,
Pamela Smeaton,nick.john@sparkneurocare.com.au,QLD,,,
Nicholas Graves,nicholasgraves56@gmail.com,,,,
Darren Daniels,nicholas.cherrie@flourishaustralia.org.au,NSW,,,
Nada Gebara,ngebara50@gmail.com,,,,
Khye Gardner,ngarbutt@barnardos.org.au,NSW,,,
Deng Deng,ngarawang@gmail.com,VIC,,,
Stephen Mcnamara,news4hughes@gmail.com,,,,
Mark Newland,newlandphillip@gmail.com,,,,
Kevin Cannell,neridaluck@arafmiqld.org,QLD,,,
Scott Price,nelliecot@msn.com,QLD,,,
David Ball,nele.schmidt.teuteberg@gmail.com,,,,
Sally Copleston,neilacopleston@gmail.com,WA,,,
Matthew Hinds,ndis430478513@bigpond.com,SA,,,
Nawres Ajeel,nawresa@hotmail.com,,,,
Charlotte Straume,nathan.straume@gmail.com,,,,
Aurora Rose Matthews,nathan.matthews2017@outlook.com,NSW,,,
Natasha Brake,natasha.brake@me.com,VIC,,,
Croyden Dennis,natalie.webb@lwb.org.au,NSW,,,
Paul Gange,natalie.nortman@contractor.net,QLD,,,
Kenneth Penny,nancyp66@hotmail.com,,,,
Riley Humphries,nancydallas@bigpond.com,,,,
Mitchell Sawan,najwas@bigpond.com,,,,
Martyn Sanjay,nadja.sanjay@gmail.com,NSW,,,
Aaminah Nashabe,nadia.khan@neaminational.org.au,NSW,,,
Peter Purss,myrtleford@bigpond.com,VIC,,,
Edward Beavan,myraeddie.b@gmail.com,SA,,,
Mason Cutts,mwrigley@yahoo.com.au,,,,
Rory Sowrey,mwilliams@csu.edu.au,NSW,,,
Murray Dean,murraydean71@outlook.com,NSW,,,
Samuel Gebru,mulujanelle@bigpond.com,VIC,,,
Meredith Heavens,mudgeeborn@gmail.com,NSW,,,
Gregorius Tanlain,mtanlain@hotmail.com,,,,
Olivia Wakehem,mssmoothoo@hotmail.com,,,,
Ametile Moir,mskmoir@live.com,NSW,,,
Rowan Thomas,msjthomas@bigpond.com,,,,
Michael William Simons,msimons620@gmail.com,QLD,,,
Amanda Molloy,msaunders@newhorizons.org.au,NSW,,,
April French,msafrench@yahoo.com.au,VIC,,,
Martin Spiteri,ms.spiteri@dr.com,,,,
Peter Perosh,mperosh@hotmail.com,,,,
Ben Harris,mpbharris@bigpond.com,SA,,,
Guiseppe Morabito,morabitoelizabeth@gmail.com,,,,
Mohammad Waqas Rana,monim.rana42@gmail.com,,,,
Monica McGhie,monica@iinet.net.au,WA,,,
Melissa Woodman,mollycrow77@gmail.com,VIC,,,
Ayeesha Tabbah,mohammed.tabbah@hotmail.com,NSW,,,
Mohamad Issa,mohamad.2000issa@hotmail.com,NSW,,,
Brendan Picken,moana.hudson@cohealth.org.au,Vic,,,
Matthew Naysmith,mnaysmith@hotmail.com,WA,,,
Ashleigh Pamela Broadfoot,mmbroadfoot@bigpond.com,,,,
Paul Butler,mjbutler123@gmail.com,,,,
Declan McMurtry,missytheblond@gmail.com,VIC,,,
Marsel Issa,missak_m@yahoo.com,NSW,,,
Hanif Idris,misr98@yahoo.com,VIC,,,
Raymond Hannah,misdivine@hotmail.com,QLD,,,
Minhaj Pakteiawal,minhajpakteiawal10@gmail.com,SA,,,
Emma Jansen,millcreekfarm@bigpond.com,,,,
Bartek Milenkiewicz,miljoanna55@gmail.com,,,,
Mia Priest-Lombardo,miki_diki@msn.com,VIC,,,
Mikel Dajti,mikel.dajti@live.com,SA,,,
Mickayla Prindable,mickymay7@hotmail.com,VIC,,,
Michael Sattin,mickonwheels@gmail.com,,,,
Hayden Kernaghan,mickeysbutterfly89@gmail.com,,,,
Michael Petrie,mickanell1@bigpond.com,,,,
Cooper Sparks,michigrayson@hotmail.com,,,,
Michelle Tencza,michelletencza@gmail.com,QLD,,,
Michelle Mitchell,michelle.mitchell3@icloud.com,NSW,,,
Lucas Issa,michelle.cullen@ndis.gov.au,NSW,,,
Madeleine Elphick,michelle_elphick@hotmail.com,NSW,,,
Michael Pini,michaelgpini@icloud.com,QLD,,,
Michael Harrison,michaelgharrison93@gmail.com,,,,
Annie Boys,michaelfboys@gmail.com,NSW,,,
Samir Asaad,michaelasaad1@gmail.com,,,,
Michael Mastrorocco,micaiah.vella@sjog.org.au,,,,
Shahani (Shai) Beer-Plesko,mia21@hotmail.com,,,,
John Iodice,mia.luchini@gmail.com,,,,
Abdul Alchaeban,mgonzalez@participateaustralia.com.au,,,,
Cooper Gillott,mgillott@optusnet.com.au,,,,
Luke Camilleri,metro97@bigpond.net.au,,,,
Nigel Bertus,merryn.bertus@htw.com.au,,,,
Tess Orton,merriwataxis@westnet.com.au,,,,
Sonia Lee-Ann Lightbody,meluv28forever@yahoo.com.au,,,,
Maria Rigon,melsandona@gmail.com,VIC,,,
Julianna Pitt,melpitt@gmail.com,,,,
Alexander El Botaty,mellindaelbotaty@yahoo.com.au,,,,
Maree Hyland,melissa.deacon@flourishaustralia.org.au,,,,
Melea O'Connell,meleaoc@tpg.com.au,NSW,,,
Mckenzie Valesini,melanie123v@icloud.com,,,,
Rhylie De Graaff,melanie.degraaff@cyclotek.com,VIC,,,
Mei Chuang Leung,meicleung@outlook.com,vic,,,
Megan Ellis,megmangooo@gmail.com,NT,,,
Megan Henderson,meghenderson1@gmail.com,,,,
Megan Sykes,megansykes14@gmail.com,,,,
Vinh-Khang (Justin) Le-Huynh,meganhuynh6789@gmail.com,VIC,,,
Inez Bugeja,meegan.harper@northcott.com.au,NSW,,,
Robert Weston,meaghan.broom@wearevivid.org.au,VIC,,,
Andrew Neems,mdsouza@uniting.org,NSW,,,
Laurence O'Neill,mcollins@participateaustralia.com.au,,,,
Thomas McInnerney,mcinnerney.thomas@gmail.com,QLD,,,
Navitesh Chand,mchand20@hotmail.com,,,,
Stuart McInnes,mcfarm@activ8.net.au,QLD,,,
Joshua Catling,mcatling@tpg.com.au,,,,
John Bargenquast,mbargenquast@bigpond.com,QLD,,,
Quoc Anh Banh,mbanh5709@gmail.com,,,,
Omar Moreno Corado,mayjshalmendarez2015@outlook.com,,,,
David Braybrook,mauro.tarquinio@merrihealth.org.au,VIC,,,
Joshua Sloboda,maureenmca@yahoo.com.au,NSW,,,
Maureen Cook,maureen.cook.2010@gmail.com,NSW,,,
Matthew Johnson,mattyent1@gmail.com,VIC,,,
Mahaylia Matthews,matthewsmolloy@hotmail.com,VIC,,,
Matthew Cheyne,matthew.cheyne@hotmail.com,NSW,,,
Chloe Griffith,matandnes@yahoo.com.au,,,,
Satrya Imawan,massatrya@hotmail.com,,,,
Rabia Durrani,mary.creagan@benevolent.org.au,NSW,,,
Paul Iffland,martiniffland@gmail.com,NSW,,,
Majid (Martin) Mirzai,martin_mirzai5@hotmail.com,,,,
Matthew Marotta,marottad@stgeorge.com.au,,,,
Michael Fanning,marktoni1@icloud.com,,,,
Travis Williams,marksetchfield@arafmi.com.au,,,,
Mark Lewis Edward Smith,marklewisedwardsmith@ymail.com,,,,
Max Guanco,mark.guanco@amaysim.com.au,,,,
Martha Crous,marieta.rob@bigpond.com,,,,
Susan Mary Maurer,mariemaurer22@gmail.com,SA,,,
Louise Spiteri,mariela.athanasiou@breakthru.org.au,VIC,,,
Maria Cristina de Paz,mariarr.cristinarr@gmail.com,,,,
Gary Baines,margot123@bigpond.com,QLD,,,
Michael Medcalf,margmoo@bigpond.net.au,,,,
Margaret Connole,margconnole280@gmail.com,SA,,,
Aaron Martin,margaretmartin37@yahoo.com.au,,,,
James Ellis,maree@ndism.com.au,,,,
Armida Vello,marcievello0@gmail.com,SA,,,
Marcia Carmichael,marciacarmichael56@gmail.com,,,,
Paul Chandler,manny@peoplesfirstchoice.com.au,VIC,,,
Amanda Vivian Dyer,mandydyer72@gmail.com,,,,
Jacob Alexander Fisher,mandhfisher@gmail.com,,,,
Sahar ElHajj,manar_40.05@hotmail.com,VIC,,,
George Bolos,manager@egbolos.com.au,,,,
Alverein Almonte,majahalmonte29@gmail.com,,,,
Robert Constantine,magda.a@sjog.org.au,,,,
Barry Webb,madfish_23@bigpond.com,QLD,,,
Harrison Dengate,madengate@bigpond.com,,,,
Rita Sammut,madeline.kamamis@breakthru.org.au,VIC,,,
Matthew Leftakis,m.leftakis@morrowsodali.com,,,,
Avoca Oughtred,lyssoughtred@yahoo.com,,,,
Phillip McManus,lynmcmanus@bigpond.com,NSW,,,
Karina Church,lynette.trau@parramattamission.org.au,NSW,,,
Lyn Eggington,lynette_e2003@yahoo.com,,,,
Lachlan Keane,lynellis@optusnet.com.au,,,,
Jamie Willsman,lyn.mcgrath@internode.on.net,,,,
Allan Jamieson,lworth@newhorizons.org.au,NSW,,,
Lula GEBREGZIABHER,lulageb123@gmail.com,VIC,,,
Alexander Belikov,ludmiladeev@hotmail.com,VIC,,,
Jake Attard,lucy.robattard@gmail.com,,,,
Rachel Dodd,lucy.markoff@ntfriendship.org.au,,,,
Lorenzo Temprosa,ltemprosa@gmail.com,,,,
Wayne Patterson,lpatterson@bne.catholic.edu.au,,,,
Damien Kovac,louisekovac@gmail.com,,,,
Megan Ilacqua,louiseilacqua@optusnet.com.au,,,,
Marie Louise Horne,lou_weese_02@hotmail.com,,,,
Jonathan Christiani,lothar_christiani@hotmail.com,QLD,,,
Kamal Lotfali,lotfaliknine@hotmail.com,NT,,,
John Noye,lois_gwen@hotmail.com,,,,
Gordon Black,logojake@hotmail.com.au,QLD,,,
Richard Sewell,lmsewell2906@gmail.com,,,,
Ryan Mcneil,lmcneil1@bigpond.com,,,,
Griffin Larner,lloydwbarrett@gmail.com,QLD,,,
Terence Law,llawllaw@hotmail.com,NSW,,,
Henry Stolk,lizstolk59@gmail.com,QLD,,,
George Duggan,lizduggan131@bigpond.com,VIC,,,
Xinyu (Rebecca) Yang,liyu261866203@hotmail.com,VIC,,,
Lisa Weekly,lisaweekly1@gmail.com,QLD,,,
Nicolas Reale,lisareale28@gmail.com,VIC,,,
Ashley Smith,lisamvyvyan@yahoo.com.au,,,,
Lisa Johnstone,lisamikesmith@optusnet.com.au,,,,
Lisa Hunt,lisagayehunt@gmail.com,VIC,,,
Suah Song,lisa.charlton@cpl.org.au,,,,
Simmone Palmer,lisa.cecil@withinaustralia.org.au,VIC,,,
Malakai Kaci,lisa_tafea31@hotmail.com,NSW,,,
Lindy Patterson,lindypatterson72@gmail.com,,,,
Caleb Lai,lindapclai@gmail.com,,,,
Bailey Johnson (Billman),lindamaryjohnson1970@yahoo.com.au,,,,
Abigail Hinckesman,linda@urbanedgestyle.com.au,QLD,,,
Wayne Hansen,linda.shaw@openminds.org.au,,,,
Mohamed Bajunaki,linda.buffey@neaminational.org.au,VIC,,,
Shu-Fen Chien,lin77wendy@hotmail.com,,,,
Brody John,lilredbug@live.com.au,,,,
Lilly Hartcher,lillygray08@outlook.com,,,,
Liam Glavas,liiiamjames@hotmail.com,,,,
Kevin Tang,lichairtia207@yahoo.com.au,,,,
Nathan Tokley,liammsmummy@hotmail.com,VIC,,,
Chloe Fauvette,lfauvett@bigpond.net.au,,,,
Jenny-Marie Nelson,leighn55@gmail.com,,,,
Madison Allen,leigh.allen@hotmail.com,NSW,,,
Bradley Heimerl,leemorse63@hotmail.com,QLD,,,
Leeja Joseph,leejapoly@gmail.com,VIC,,,
Alexander Gallagher,lee.gallagher1@bigpond.com,,,,
Susan Leayr,leayrds2@bigpond.com,NSW,,,
Leanne Thomas,leannethomas62@optusnet.com.au,QLD,,,
Zoe Blaikie-West,leanneblaikie1@hotmail.com,,,,
Maximos Rodger Arkadianos,leannearkadianos@gmail.com,SA,,,
Thoryn Watt,leahmoran@valmar.com.au,,,,
Tyler Bissicks-Morales,lbissicks87@gmail.com,,,,
Sylvia Elliot,laylalove84@outlook.com,,,,
Natalie El-Agha,layla_el_agha@hotmail.com,,,,
Vishnu Gopakumar,lavyagopa@yahoo.com,,,,
Paul McPherson,laurie.fitzpatrick@gatewayhealth.org.au,VIC,,,
Prue Skelding,laurenvincent77@hotmail.com,QLD,,,
Laurel Sampson,laurel_sampson@hotmail.com,,,,
Gail Trinder,laura.manuel@breakthru.org.au,,,,
Leanne Lingard,larney2u@hotmail.com,,,,
Anthony Ianni,larissa_ianni@hotmail.com,,,,
John Knowles,lands.graham@bigpond.com,,,,
Irene Pantsos,lambrina.b@hotmail.com,NSW,,,
Melanie Lamb,lamb.melanie1@gmail.com,,,,
Umesh Vaswani,lalita.vaswani@gmail.com,NSW,,,
Lachlan Napier,lachlan.n93@gmail.com,Queensland,,,
Lachlan McKay,lachlan.anesbury@gmail.com,SA,,,
Kym Reeves,kymanderson181@gmail.com,VIC,,,
Kylie-Maree Beller,kyliemaree02@hotmail.com,,,,
Kylie Wilmot,kylieannwilmot@yahoo.com,VIC,,,
Jye McPherson,kylie.tuckey600@schools.sa.edu.au,,,,
Ky Richards,kyannerichards@gmail.com,VIC,,,
Kushbu Lal,kushbu.lal100@gmail.com,VIC,,,
Kuok Kun Cheong,kuokkun.cheong84@gmail.com,,,,
Sharon Ritchie,kumbaya@optusnet.com.au,,,,
Violet Marks,ktmarks07@gmail.com,VIC,,,
Patrick Green,kteese8@bigpond.com,QLD,,,
Michelle Kouvaras,krystaljas@icloud.com,QLD,,,
Ashton Ang,krisyan@yahoo.com,WA,,,
Jackson West,kristy.west74@gmail.com,VIC,,,
Georgie Ohlson,kristiejoy@hotmail.com,,,,
Tamati Michael Pahulu,kppahulu@optusnet.com.au,,,,
Kon Kiryakudya,konkirya@gmail.com,,,,
Kon Havelas,konariii2002@yahoo.com,VIC,,,
Nathan Farrugia,kntc2011@gmail.com,,,,
Frances McIntosh,kmagee@each.com.au,VIC,,,
Simone Thomas,km0277@icloud.com,,,,
Kieran Kerschat,kkerschat@optusnet.com.au,QLD,,,
Ashleigh Baker,kkbaker@bigpond.com,,,,
Ella Butters,kirsty4.0@hotmail.com,,,,
Rebecca Lambert,kirsty.surr@flourishaustralia.org.au,NSW,,,
Talia Lowe,kirsty.luttrell@gmail.com,,,,
Katherine Eaddy,kingcobra1876@gmail.com,QLD,,,
Henry Rahi,kimrahi@weblive.com.au,,,,
Kim Marie Gordon,kimgordontextile@gmail.com,VIC,,,
Kim Farr,kimfarr75@hotmail.com,,,,
Kimberly Larsen,kimberlyjoylars@gmail.com,,,,
Robert Craig,kim.craig4@bigpond.com,QLD,,,
Dawn Sheehan,kim_sheehan88@hotmail.com,,,,
Nathan Furbank,kiaraenglish@hotmail.com,NSW,,,
George Andre Ian Triat,kiahtriat@gmail.com,VIC,,,
Kael Honey,khspike32@gmail.com,NSW,,,
Omer Khamis,kh.m27@yahoo.com,NSW,,,
Aleigha Butler,kezzy26@live.com.au,QLD,,,
Jackson Van Essen,kezia98@live.com,,,,
Kay Sherar,kesherar@gmail.com,,,,
Ethan Kerschat,kerschat@bigpond.com,QLD,,,
Kerry McDonnell,kerry@mcdindustries.com.au,SA,,,
Kerrin O'Rourke,kerrin.orourke123@gmail.com,VIC,,,
Keran Villis,keran_77@hotmail.com,,,,
Dailyn Smith,kelmsmith@yahoo.com,NSW,,,
Jack Woodyatt,kelly.walker@sswahs.nsw.gov.au,,,,
Simon Maule,kelly.maule70@gmail.com,VIC,,,
Kelly Thornton,kelly.anne.thornton76@gmail.com,VIC,,,
Kelly Thomas,kelly_thomas2003@hotmail.com,,,,
Cristin Nicholson,kelliecristin@gmail.com,,,,
Bobby Breen,kelliebacon5@gmail.com,SA,,,
Tomas McVicar,keepintouchwithann@gmail.com,,,,
Samuel Keegan,keeg1ash@gmail.com,NSW,,,
Brokk Winters,kbwinters@mail.com,NSW,,,
Aaron Bennett,kbennett@scoastnet.com.au,,,,
Rhonda Narelle Honda,kazhonda1802@gmail.com,QLD,,,
Karen Spencer,kazangel2010@hotmail.com,VIC,,,
Michelle Lang,kayrush216@hotmail.com,SA,,,
Beau Riosa,kaydentaylor92@hotmail.com,SA,,,
Auden Cheung,kausanny@hotmail.com,,,,
Mathew Vella,katvella@msn.com,NSW,,,
Katrina Procek (Borg),katrinaborg76@gmail.com,,,,
Alistair Marshall,katrina.marshall@rhac.nsw.edu.au,,,,
Benjamin Aurisch,katrina.loukas@flourishaustralia.org.au,NSW,,,
Katrina Ford,katrina.ford@amwu.asn.au,,,,
Harley Smith,katmacca79@gmail.com,NSW,,,
Kathryn (Kate) Masters,katiet@esc.net.au,SA,,,
Reena McIntosh,katiemcintosh85@gmail.com,QLD,,,
Katie Day,katiejayneday@gmail.com,NSW,,,
Jane Barry,katie@loudisland.com,NSW,,,
Kathryn Fischer,kathryn.fischer.1956@outlook.com,VIC,,,
Haylea Nitschke,kath_70@hotmail.com,VIC,,,
Ellen Mahony,kate.troy@communitygateway.net.au,,,,
Andrew Emerson,kate.emerson@outlook.com.au,NSW,,,
Kate Stitz,kate_s_92@hotmail.com,VIC,,,
Nyota Otatete,kasongo_p@yahoo.com,VIC,,,
Elizabeth Shine,karin5188@hotmail.com,VIC,,,
Karen Vernon,karenvernon@iinet.net.au,,,,
Karen Sertori,karensertori3145@gmail.com,VIC,,,
John Alexander,karenjohnjordan@gmail.com,NSW,,,
Meekaylaa Maaee,karenbandpaulw@optusnet.com.au,NSW,,,
Karen Glasson,karen.glasson@gmail.com,VIC,,,
Ali Hadjawi,karar.ndis@hotmail.com,VIC,,,
Adrian Colby,kanz383@gmail.com,,,,
Helen Harman,kandlcole@bigpond.com.au,QLD,,,
Sadala Abdu,kanderson@anglicaresa.com.au,SA,,,
Alana Higgins,k2veech19@gmail.com,NSW,,,
Hayden Bradbury,k.e.boyton@icloud.com,,,,
Kiki Syofyan,k_syofyan@yahoo.com.au,NSW,,,
Margot Wilson,jwils390@eq.edu.au,,,,
Xander Wearne,justinw@bremick.com.au,,,,
Raoul Guihot,justinm@footprintsinc.org.au,QLD,,,
David Kenneth White,juliewhite_7@hotmail.com,,,,
Damian Hicazian,juliet.darkcloud@hotmail.com,VIC,,,
Mitchell Prevost,julieprevost63@gmail.com,,,,
Joshua Lillis,julielillis73@gmail.com,,,,
Paul Grainger,juliejclark@me.com,NSW,,,
Juliean Morris,julieanmorris@gmail.com,SA,,,
Julie Kerr,julie3116@hotmail.com,VIC,,,
Benjamin Scott Lehmann,julianne.lehmann60@gmail.com,SA,,,
Julie Riddell,julee.riddell78@outlook.com,QLD,,,
Judith Hester,judyhester@rocketmail.com,VIC,,,
Majenta (Judith) Lavender,judith_purple_lady@hotmail.com,,,,
Mary Leitch,juanita.mayenco@gmail.com,QLD,,,
Juanita Kerr,juanita.kerr@icloud.com,QLD,,,
Josphine Hamilton O'Brien,jtzobrien@gmail.com,NSW,,,
Gregory Longmuir,jtdprovider@gmail.com,VIC,,,
Johnny Soueid,jsyes@hotmail.com,,,,
James Strathdee,jstrathd@bigpond.net.au,QLD,,,
Molly Stanvi,jstanvi@gmail.com,Vic,,,
Cameron Cliff,jsc83@bigpond.com,NSW,,,
Jason Sawle,jsawle12@gmail.com,NSW,,,
Angela Abernethie,jptrustedadvisor@gmail.com,WA,,,
Joshua Banks,joshua.banks@me.com,,,,
Eric Fake Example,josh.giamboi@planpartners.com.au,,,,
Joshua Lawrence,josh.a.lawrence15@gmail.com,,,,
Johannes (Jon) Bastiaans,josb52@bigpond.com,SA,,,
Joseph Rossi,joro@iinet.net.au,NSW,,,
Jordan Flett,jordanheyleyflett@gmail.com,QLD,,,
Roger Phillips,jonemron@yahoo.com,,,,
Emily Crabb,jonea.owen@impactcare.org.au,NSW,,,
Jonathan Reyes,jonathanreyes87@hotmail.com,,,,
Cohen Bruggy,jomum2three@hotmail.com,QLD,,,
Christopher Jolly,jollyhouse100@hotmail.com,SA,,,
John Butterly,johnplussix@hotmail.com,,,,
Matthew Russell,johnjosier@gmail.com,QLD,,,
Victoria Greenland,johng47@bigpond.com,QLD,,,
Koula Antoniou,johnandkoula@gmail.com,,,,
Joanne Motteram,john@jpjjmotteram.com.au,SA,,,
John Alan Parker,john.parker8@icloud.com,NSW,,,
Jaime Lyons,john.kenny@kcc.nsw.edu.au,,,,
Ibolya Kiss,john.earle8@bigpond.com,QLD,,,
Ronelle Croft,joelene.holland@benevolent.org.au,NSW,,,
Tristan Kinnear,joeleane74@gmail.com,SA,,,
Jody Pilcher,jody.pilcher21@gmail.com,,,,
Jacob Reid,jodiem14@hotmail.com,QLD,,,
Jordan Greck,jodie.detoxcrew@gmail.com,,,,
Matthew Szeto,jocelynszeto1967@gmail.com,NSW,,,
Caitlin Carswell,joannecarswell@internode.on.net,SA,,,
Jean Pierre De Villecourt,joanne@abis.org.au,,,,
Rebecca Smith,joanne.s23@hotmail.com,,,,
Georgia Goss,jmgoss@bigpond.com,,,,
John Munro,jluscombe@wellways.org,VIC,,,
Juliette Maxwell,jlm3d@bigpond.com,,,,
Luke Laundess,jlaundes@bigpond.net.au,,,,
Jack Kingsley,jjhkingsley@gmail.com,VIC,,,
Cody Cecchin,jjessop@each.com.au,VIC,,,
Eric Liu,jimericl@icloud.com,VIC,,,
Ee Ming (Samantha) Cheam,jim.cheam@gmail.com,,,,
Jill Raymond,jillraymond@activ8.net.au,,,,
Jill Owen,jilleowen61@me.com,VIC,,,
Julian Brumpton-Ghoddusi,jill.brumpton@gmail.com,Qld,,,
Joseph Hanna,jhanna77@yahoo.com,VIC,,,
John Inglis Purnell,jhaangana@newhorizons.org.au,,,,
Alan Ngo,jford@sharecare.org.au,,,,
Deacon Boyd,jessicajaycon@gmail.com,NSW,,,
Jessica Green,jessicagreen944@gmail.com,,,,
Maryanne Grech,jessicagrech00@hotmail.com,VIC,,,
Grant Worland,jessica.hosie@each.com.au,VIC,,,
Jessica Loughton,jessica_dance18@live.com.au,NSW,,,
Jeremy Ian Atkinson,jeremy_atkinson1996@hotmail.com,QLD,,,
Hayden Smith,jensmith2909@gmail.com,,,,
Jennifer Rozsa,jenrozsa68@gmail.com,,,,
Briana Radford,jenradford82@gmail.com,NSW,,,
Luis Vieira,jennyvk@live.com.au,NSW,,,
Dimitria Voulgarakis,jennyspiller11@gmail.com,VIC,,,
Ze Hao (Jason) Chen,jennylam101010@hotmail.com,NSW,,,
Jennifer Harvey,jennyharvey67@bigpond.com,,,,
Jennifer Tunstall,jenny.r.tunstalll@gmail.com,QLD,,,
Carly Jensen,jenny.jensen@agboss.com.au,,,,
Jennifer Cheney,jenny.cheney@me.com,QLD,,,
Sean Kenny,jennifer.kenny7@bigpond.com,,,,
Joel Field,jennifer.hails@bigpond.com,,,,
Jennifer Crehan,jenniejonesart@hotmail.com,NSW,,,
Susan Morgan,jenna.dunstan@disabilitytrust.org.au,,,,
Jenifer Lewington,jeni.lewington@gmail.com,,,,
Jenny Jones (NSW),jenajones75@gmail.com,,,,
Drew Greenaway,jen.greenaway@yahoo.com.au,,,,
Hanna Ahmad,jelan_90@hotmail.com,,,,
Ali Hassan,jeffrey.watt@benevolent.org.au,,,,
Hulya Houssein,jeff.houssein@tridentpacific.com.au,,,,
Michael John Nuttall,jeannuttall01@gmail.com,NSW,,,
Joseph Geering,jeangeering@yahoo.com,NSW,,,
Ryan Boxsell,jean.boxsell@au.ey.com,,,,
Michael Spence,jds1710@gmail.com,,,,
Terry Sullivan,jctns2020@gmail.com,SA,,,
Justin Coull,jcoull6@bigpond.com,QLD,,,
Shinay Buckley,jcb.buckley@gmail.com,,,,
Jamie Bankin,jbankin1@bigpond.com,VIC,,,
Annaliese Constable,jazmin.ramos@flourishaustralia.org.au,,,,
Jayden Harrison,jaydenhar1998@gmail.com,,,,
Jayde Millington,jaydemillo22@gmail.com,,,,
- Jayasooriah,jayasooriah@yahoo.com.au,NSW,,,
Connor Ross,jasonphoenix69@gmail.com,QLD,,,
Jason Day,jasonday90@live.com.au,,,,
Jason Evans,jason.evans90@yahoo.com,QLD,,,
Amanda Sands,jasands@ipstarmail.com.au,NSW,,,
Janice Raymond,janicedoesyoga@yahoo.com.au,NSW,,,
Janet Curtain,janetcurtain@hotmail.com,,,,
David Stower,janelle.branch@bigpond.com,NSW,,,
Tess Tynan,janelle_hunt@bigpond.com,,,,
Adam Fitzgibbon,jane.fitzy76@hotmail.com,QLD,,,
Janaleen Wolfe,janaleen@optusnet.com.au,,,,
Jamie Hurst,jamie@hursthospitality.com.au,,,,
James Rheinberger,jamesrhe@dodo.com.au,,,,
James Anvia,jamesaj@optusnet.com.au,NSW,,,
Owen Pollock,james.maxwell.pollock@gmail.com,SA,,,
Jamal Abdulrahim,jamal.y95@hotmail.com,NSW,,,
James Birnie,jaimie077@optusnet.com.au,SA,,,
Charlotte Fiefia,jailovesyou@hotmail.com,NSW,,,
Jai Kelly,jaikelly@live.com,,,,
Renata Stuart,jacqui.wallace@gatewayhealth.org.au,,,,
Jacqueline Thompson,jacqui-75@hotmail.com,NSW,,,
Matthew Dixon,jacquelinecooley@yahoo.com.au,,,,
Kevin Jackman,jackman9301@gmail.com,QLD,,,
Jacqueline Joughalian,jackiejoogs@gmail.com,NSW,,,
Jayden Ford,jackieford54@hotmail.com,SA,,,
Leanne Austin,jackieaust@yahoo.com.au,NSW,,,
Andrew Butler,jach3010@gmail.com,,,,
Erkan Dalan,j3zzawar1@hotmail.com,NSW,,,
Diana Bruce,j.bruce@theodorebruce.com.au,SA,,,
Jonathan Attfield,j_attfield@hotmail.com,NSW,,,
Hamish Bird,ivor.hind@gmail.com,,,,
Ivon Davidson,ivon12018@outlook.com,,,,
Jaleb Waqar,itsanees27@gmail.com,QLD,,,
Karim De-Lancel,ismailghada76@gmail.com,,,,
Larson Le,isimlay@gmail.com,VIC,,,
Oi Chun Ha,irenewong0@gmail.com,,,,
Dawn Watson,irene.economou@me-well.org.au,VIC,,,
William Chen,ing@participateaustralia.com.au,,,,
Phillip Giles,info@underwraps.net.au,,,,
Huong Thi Nguyen,info@supportcoordinationau.com,VIC,,,
Zahra Sawari,info@onecaresupport.net.au,VIC,,,
Skye Ibbotson,ibbosmail@gmail.com,,,,
Ian Tasker,ian.tasker@uws.edu.au,,,,
Mary-Anne Rojek,hwal3218@bigpond.net.au,,,,
Che Sunny Vincent Hussey,husseyone@hotmail.com,NT,,,
Helen Austin,hunt.k5886@hotmail.com,,,,
Ashley Graham,hugh.webb@lwb.org.au,NSW,,,
John Hubbard,hubbo55@hotmail.com,NSW,,,
Raechel Ward,ht69monaro.r.w.s@gmail.com,QLD,,,
Hoturoa Hawira,hoturoa@msn.com,,,,
Vanessa Rushworth,horsesrules19@gmail.com,NSW,,,
Romina Karwarz,homa.1212@gmail.com,,,,
Holly May Amy,holly.amy83@gmail.com,Vic,,,
Paul Montgomerie,hippynesspaul@gmail.com,,,,
Paul Campbell,hennessylesley1@gmail.com,WA,,,
Helin Kayabekman,helin.kayabekman@hotmail.com,NSW,,,
Helen Boreham,helen.boreham@me.com,QLD,,,
Jaida Pont,heidi.pont@yahoo.com.au,,,,
Richard Kapac,heidi.daly@me-well.org.au,VIC,,,
Heidi June Finn,heidi_finn@outlook.com,,,,
Jordan Bill,heatherbill@optusnet.com.au,,,,
Wesley Balderson,heather.sander@bigpond.com,qld,,,
Hien Chung,hchung@y7mail.com,NSW,,,
Jacob Kinghorn,hayley.kinghorn14@gmail.com,,,,
Haylee Swindells,hayleeswindells@hotmail.com,,,,
Keoni Swindells,haylee.plan@gmail.com,,,,
Hayden Kula,hayden.kula1@gmail.com,VIC,,,
Janette Hawkes,hawkes27@optusnet.com.au,NSW,,,
Elisha Flett,hanginfromacloud@gmail.com,QLD,,,
Christina Green,hamsteaks77@hotmail.com,,,,
Brian Haddon,haddonbrian55@gmail.com,NSW,,,
Glenn Woodman,gwoodman83@gmail.com,WA,,,
Robert Ellis,guss88@hotmail.com,QLD,,,
Gavin Wrigley,grumpycow12@outlook.com,QLD,,,
Lisa Weeks,gregandsuejames@bigpond.com,,,,
Jude Haywood,grant_haywood@bigpond.com,NSW,,,
Marko Dimitrijevic,gorand77@bigpond.com,,,,
Annette Pitt,goodgirl651@gmail.com,,,,
Genevieve Healy,gnibbs@hotmail.com,QLD,,,
Goranka Milenkovich,gmilenkovich@gmail.com,VIC,,,
Glenn Evans,gmeagher@wellways.org,VIC,,,
Samuel Tierney,gina.agius@fsunion.org.au,,,,
Byron Boehm,gil.boehm@gmail.com,,,,
Ghana Garroug,ghanagarroug@gmail.com,NSW,,,
Ghaleb Al Qudsi,ghaleb_20@hotmail.com,,,,
Daniel Mcgrath,gfm469@gmail.com,,,,
Gerry Fake Matthews,gerrym@planpartners.com.au,,,,
Gerard Payne,gerard_payne@hotmail.com,VIC,,,
Geraldine Edwards,geraldine.a.k.edwards@gmail.com,QLD,,,
Georgina Elias,georginaelias37@gmail.com,,,,
Corey Heaton,georgiag27@yahoo.com.au,QLD,,,
Vivian Ghaback,george2448@hotmail.com,,,,
Kalolo Kalolo,gdcavanagh73@gmail.com,,,,
Warren Noble,gazza@bigpond.net.au,,,,
William Hilder-Childs,gayemezza@gmail.com,,,,
Gavin Ford,gavin@gavinfordmobiles.com.au,QLD,,,
Gavin Webb,gavin.b.webb@hotmail.com,,,,
Akhter Muhammad Muhammad Hassan,gautam.karki@afford.com.au,,,,
Gretta Serov,gaserov65@hotmail.com,,,,
Gary Thomson,garyt54@hotmail.com,VIC,,,
Gary Leech,garyleech1111@gmail.com,NSW,,,
Rhonda Lomax,gary.lomax2@bigpond.com,QLD,,,
Donna Roselt,garryanddonna54@gmail.com,QLD,,,
Bradley Wilson,ganesh.kakani@northcott.com.au,,,,
Galina Shmakoff,galinajenkins@gmail.com,VIC,,,
Nathan Roitman,galia.roitman@gmail.com,,,,
Christopher Troiano,gabytroiano@hotmail.com,,,,
Fabian Frost,frostfabian69@gmail.com,VIC,,,
Oliver Hobson,franklen@mac.com,,,,
James Berry,francesemiller1@icloud.com,NSW,,,
Joe Sindoni,francesca.s1@optusnet.com.au,NSW,,,
Mahib Mohiuddin,fouziaakhter@hotmail.com,,,,
Anthony (Tony) Hughes,foreverdry@bigpond.com,,,,
Forbes Kerry,forbes_austin_1112@yahoo.com.au,,,,
Jason Fong,fong_jason@yahoo.com,NSW,,,
Carol-Anne Flett,flettvj@gmail.com,,,,
Paul Fisher,fishandrella@bigpond.com,QLD,,,
Chloe Doller,fionna@thedollerfamily.net,VIC,,,
Harrison Clode,fiona.enjo@bigpond.com.au,,,,
Alasdair Pirie,filavery@yahoo.com,,,,
William Maxwell,fgmdesign@bigpond.com,,,,
Ava Matutini,feliciagalea85@hotmail.com,VIC,,,
Jacob Earley,fearsome4@live.com,,,,
Farshad Ahamed FAZAL HUSSAIN,fazalmansook@gmail.com,VIC,,,
Georgina (Gina) Law,fayehouston@icloud.com,NSW,,,
Bruce Glase,fay3479@hotmail.com,,,,
George Sigg,fatgutink@gmail.com,,,,
Faerie Fox,faerielulah1@gmail.com,VIC,,,
Daniel Moran,fabianmoran66@hotmail.com,,,,
Aaron Bellchambers,eyeark@nextt.com.au,NSW,,,
Elliott Webster,ewebster00@gmail.com,,,,
Nathan Outten,evanjervis@hotmail.com,QLD,,,
Xavier Telford,eva.lam@sjog.org.au,,,,
Monique Swan,eturner@achieveaustralia.org.au,NSW,,,
Michael Simpson,es.cm@exemail.com.au,,,,
Rhonda Davies,ernestdavies62@gmail.com,,,,
Julie-Anne Hawthorn,erinfrog30@hotmail.com,VIC,,,
Jenni Miller,ercildoune109@gmail.com,VIC,,,
George Senavellis,epifaniasenavellis@yahoo.com.au,,,,
Thomas Engler,engmy003@mymail.unisa.edu.au,VIC,,,
Enes Tosya,emtosya@gmail.com,NSW,,,
Emma Jurjans,emmajurjans77@gmail.com,VIC,,,
Thomas McCarthy,emmaandthomas@hotmail.com,QLD,,,
Robert Beeken,emma@abilityconnect.com.au,NSW,,,
James Stevens,emma.smith@each.com.au,VIC,,,
Pamela Sinclair,emma.jenkin@each.com.au,VIC,,,
Leon Andrews,emma.fraser@abilityoptions.org.au,,,,
Emma Fogarty,emma.fogarty3@bigpong.com,VIC,,,
Jesse Charles,emilyjk84@gmail.com,QLD,,,
Christine Naidu,eman1966@hotmail.com,,,,
Taj Christensen,em18@hotmail.com.au,NSW,,,
Summah Ellis,elliscarissa1@gmail.com,,,,
Susan Ellis,ellis.susan@hotmail.com,,,,
Harry John Merritt,elissa.e.merritt@gmail.com,,,,
Peter Chalouhy,eliechalouhy@hotmail.com,NSW,,,
Elia Abou-Haidar,elia0011@hotmail.com,VIC,,,
Ersilia Certoma,eli_beth74@hotmail.com,NSW,,,
Elena Yap,elenayap@gmail.com,VIC,,,
Frank Ma,eileen.xie@hotmail.com,NSW,,,
Ehsan Assadian,ehsanassadian17@gmail.com,VIC,,,
Helen Anne Edwards,ehelen72@yahoo.com,,,,
Catherine (Cathy) Egan,eganca63@bigpond.com,,,,
Gaena O'Connell,edel.kellett@avivo.org.au,WA,,,
Cameron Tang,ectang81@outlook.com,,,,
Julie Swafford,earthy72@gmail.com,NT,,,
Pamuk Rona,dsearle@interactionservices.org,NSW,,,
Trung Bun Nguyen,drew.a.nguyen@gmail.com,,,,
Patricia Neukother,dpneu159766@bigpond.com,,,,
Zephyr Marrapodi,dp.marrapodi@outlook.com,,,,
Tomas Schreiber,dougnsab@gmail.com,SA,,,
Deborah Naden,dorisglas@hotmail.com,,,,
Dorien Karam,dorienkay@hotmail.com,NSW,,,
Dianne Moussa,doodaa3@bigpond.com,,,,
Taisia Kuschert,donelle@kuschert.com,QLD,,,
Mercrucio Abra,dominiqueabra@outlook.com,WA,,,
Allison Dennis,dogiegone@gmail.com,,,,
Sebastian Britos,dnsbritos@gmail.com,,,,
Jason Murray,dmurray2209@gmail.com,VIC,,,
Daniel Willemse,dlwillemse@bigpond.com,,,,
Clare Rixon,djctrixon@gmail.com,,,,
Dixie Clayton,dixiedel.clayton@gmail.com,QLD,,,
Pascal Dionnet,dionnetpascal@gmail.com,,,,
Leslie Bishop,dig17ee5@gmail.com,QLD,,,
Dianne Kitson,diannekitson@yahoo.com.au,NSW,,,
Glen Morcom,dianegallsopp@gmail.com,VIC,,,
Ronald Davis,diane.kyling@ucmh.org.au,,,,
Rory McCann,diane.hancock1@bigpond.com,NSW,,,
Diana Osbich,dianao@optusnet.com.au,,,,
Patrick El Hashem,diana@pressecafe.com.au,NSW,,,
Eric Neemia,dia969@live.com.au,,,,
Mark Baker,di_1951@live.com,NSW,,,
David Gwilliam,dgwilliamultimo@yahoo.com.au,,,,
Andrew Grant,dgfwalsh@yahoo.com,,,,
Michael Galley,dgalley2@bigpond.com,,,,
Destyni Ferry,dferry31@gmail.com,QLD,,,
Colin Tucker,dezy65@hotmail.com.au,,,,
Rivkah Devorah Rosen,devorose99@outlook.com,VIC,,,
William Constantine Moustos,despina.moustos@gmail.com,Vic,,,
Malcolm Green,dennigreen@hotmail.com,,,,
Denis Glover,denis.glover02@gmail.com,NSW,,,
Beau Muir,deebrewer2@msn.com,,,,
Dannye Radakovich Nunn,dee.enn9@gmail.com,,,,
Deborah Carey Deckys,debsydubs@gmail.com,,,,
Kristen Jamieson-Ohotin,debbierolls59@gmail.com,,,,
Shane Patrick Grey,debbiegrey067@gmail.com,QLD,,,
Zachary Edmondson,debbiee111@hotmail.com,SA,,,
Deborah Ryan,debbie691@live.com.au,,,,
Jayson Watson,deb@smithshall.com.au,NSW,,,
Paul Anthony Baker,deauzie@gmail.com,,,,
David Dias,ddias.1962@bigpond.com,NSW,,,
Daniel Hassen,dazjh@hotmail.com,,,,
Dayle Lancaster,dayle.r.lancaster@gmail.com,WA,,,
Dawn McCormick,dawnmccormick1958@gmail.com,NSW,,,
David Smith,daviredavire@hotmail.com,WA,,,
David Limn,davidlimn63@gmail.com,,,,
David Grabski,davidgrabski@yahoo.com.au,VIC,,,
Dylan Greaves,davidandralda@bigpond.com,QLD,,,
Vanessa Lucas,david.wilson@justice.vic.gov.au,VIC,,,
Elizabeth Wheaton,david.wheaton3@gmail.com,QLD,,,
John Chick,david.peteroulakis@northcott.com.au,,,,
David Nguyen,davemnguyen@gmail.com,NSW,,,
Margaret Manser,davemanser@outlook.com,NSW,,,
Justin - Nguyen- VIC,datchau.nguyen@gmail.com,VIC,,,
Daniel Noonan,danny.noonan@icloud.com,,,,
Daniel Ghazanfari,danielghazanfari@outlook.com,VIC,,,
Raymond Blacklock,danielartup90@gmail.com,NSW,,,
Jack Smith,daniel@uptons.net.au,NSW,,,
Max Bushnell,daniel.palffy@abilityoptions.org.au,NSW,,,
Stephen Willis,dani.fender@flourishaustralia.org.au,,,,
Damien Rooney,damien.dalene@gmail.com,NSW,,,
Damien Wapling,damianwapling@gmail.com,VIC,,,
Mark Neal,d.mlloyd@bigpond.net.au,,,,
Jasper Norman,cute2boot@icloud.com,VIC,,,
Carl Newman,ctnewman@bigpond.com,Vic,,,
Indy-Leigh Jones,crystalnindy2010@gmail.com,,,,
Michael Manttan,crpswarrior149@yahoo.com.au,QLD,,,
Caley Enticott,crissenem@gmail.com,VIC,,,
Taylor Short,crissamf@gmail.com,QLD,,,
James Pavlou,crazypavlous@hotmail.com,,,,
Lee Hempstead,craig.hempstead@qr.com.au,,,,
Tundra Pokorny,cpokorny@ozemail.com.au,NSW,,,
Matthew Patmore,cpat27@iinet.net.au,,,,
Cadence Massey,court4408@yahoo.com,NSW,,,
Janet Costello,costellokj9@gmail.com,,,,
Emma Wilson,cosmicsw@hotmail.com,,,,
Corinne Morgan,corinnemorgan1903@gmail.com,VIC,,,
Hollie Moore,corenejay@gmail.com,QLD,,,
Aaron Corby,corbyterry@gmail.com,,,,
Riley Kelly,colorspectrum.1475@gmail.com,VIC,,,
Jamie Bray,colonyshaun2@gmail.com,NSW,,,
Janelle French,colin.french7@bigpond.com,QLD,,,
Gregory Vickers,colcol52@hotmail.com,SA,,,
Jarrad Moore,cmoore@autismspectrum.org.au,,,,
Clinton Small,clnt@msn.com,QLD,,,
Carolina Tejo,claudia.bauerle@yahoo.com.au,NSW,,,
Damien Slattery,clare.georges@benevolent.org.au,NSW,,,
Clare Fryer,clare.fryer777@gmail.com,,,,
Claire Welch,claire.pat.welch@gmail.com,WA,,,
Dawt Hlei Tial,claire.kuhnell@each.com.au,VIC,,,
Cheryl King,cking0238@gmail.com,SA,,,
Simon Khoury,ckhoury68@gmail.com,,,,
Daniel Clissold,cjmacneil@live.com,VIC,,,
Stephanie Delamare,cjd67qld@gmail.com,QLD,,,
Koroush Badirkhani,cindyisbright@gmail.com,VIC,,,
Thanasi Psyhogios,chrysavee@live.com.au,NSW,,,
Angela Evangelinos,christinemorel72@gmail.com,VIC,,,
Christine Kaihea,christine.kaihea@gmail.com,ACT,,,
Christian Summerhayes,christiansummerhayes@gmail.com,,,,
Christian Peralta,christianperalta11@gmail.com,,,,
Anthony Stramandinoli,chrissam23@hotmail.com,,,,
Mohamed Jihed Chater,chloey.ayoub@ndis.gov.au,NSW,,,
Chloe McCauley,chloe.maree.mccauley@gmail.com,,,,
Lauren Fabish,cherylfabish@yahoo.com.au,,,,
Lisa Collins,cherylacollins17@gmail.com,,,,
Connor Maclean (NSW),cheryl@connormaclean.com,,,,
Rita Cherti,cherti10@bigpond.com,QLD,,,
Matt Aitken,cheriek966@msn.com,,,,
Michelle Beeby,chellebb@gmail.com,SA,,,
Maria Biniaris,cheekyregina73@hotmail.com,,,,
Mark Brady,charmaine@auroracoordination.com.au,,,,
Yves Gauthier,cgauthier@fairfieldcity.nsw.gov.au,NSW,,,
Shreyas Srinivasan,ccube009@gmail.com,,,,
Sam Anthony Conacher,cconacher@3dsafety.com.au,NSW,,,
Laura Naing,cathy.naing2@gmail.com,,,,
Lachlan McGrath,cath.mcgrath@bigpond.com,VIC,,,
Catherine Sharp,catemaree@hotmail.com,,,,
Cassandra Bland,cassie_bland@hotmail.com,VIC,,,
Jasamine Evans,casperevans04@gmail.com,,,,
Dylan Peck,carolynwoodpeck@gmail.com,NSW,,,
Caroline Day,carolineday64@gmail.com,NSW,,,
Robert Harvey,carnold@wellways.org,VIC,,,
Ryder Tozer,carlyemont@gmail.com,QLD,,,
Candida (Candi) Atkinson,candidajune1982@gmail.com,VIC,,,
Cassandra Strike,calost21@hotmail.com,,,,
Grace Ryan,cafshae@gmail.com,,,,
Christopher Simmons,c.simmons@outlook.com.au,VIC,,,
"Phillipa ""Pip"" McFadzen",bundilla1@outlook.com,QLD,,,
Robert Matrai,bumpa24@dodo.com.au,,,,
Cassandra Collins,bullsnot@bigpond.com,QLD,,,
Jai Warner,bulldog677@bigpond.com,,,,
Brad Johnson,budda008@outlook.com,QLD,,,
Holly Buckeridge,bucko127@westnet.com.au,,,,
Carol Meredith,bubba.bling@hotmail.com,,,,
Bonnie Traynor,btraynor1987@gmail.com,VIC,,,
Jacinda Ratanatray,bsratanatray@yahoo.com.au,QLD,,,
Bryce Petersen,brypet008@gmail.com,SA,,,
Kerry Brooks,brooks@idx.com.au,,,,
Kathleen Beaton,brookleaagedcare@gmail.com,VIC,,,
James Carroll,bronwyn@fixwindows.biz,VIC,,,
Trent Martin,bronwyn.furner@outlook.com,,,,
Travis Carson,bron_omalley@yahoo.com.au,,,,
Caleb Lambert,broke23@msn.com,,,,
Toby Baker,brenrose27@hotail.com,QLD,,,
Brendon Donohue,brendoncdonohue@icloud.com,QLD,,,
Brenda Evans,brendae297@gmail.com,,,,
Thomas Jackson,brenda2641@hotmail.com,NSW,,,
Bree Pick,bree2975@outlook.com,VIC,,,
Sandra Aslin,bree.lowther@ndis.gov.au,SA,,,
Breanna Eaton,breannalouise788@gmail.com,,,,
Brandon Rutland,brandonrutland@tpg.com.au,QLD,,,
Bradley Marshall,bradm90210@gmail.com,QLD,,,
Bradley Jeffery,bradley-jeffery_1984_2015@hotmail.com,VIC,,,
Alicia Booth,boothalicia@hotmail.com,QLD,,,
Robert Costa,bonagura1996@gmail.com,,,,
Tamara Mckeown,bombermarie@hotmail.com,VIC,,,
Belinda Schuberg,bmschuberg99@gmail.com,NSW,,,
Barry McKee,bmckee@veritel.com.au,,,,
Bruce Maddick,bmaddick@iinet.net.au,QLD,,,
Joshua Tjong,blue_3mercury@yahoo.com,,,,
Anne Gatley,blondebag73@hotmail.com,,,,
Peter Kelly,blazelly@gmail.com,NSW,,,
Blake Seinor,blake.seinor36@gmail.com,,,,
Bailey John Bosco(Stapleton),bjstapo25@gmail.com,,,,
Brett Johnston,bjo2412@hotmail.com,,,,
Mitchell Stephen Nightingale,bjnight@outlook.com,SA,,,
Sophie Smith,bizeeee3@hotmail.com,NSW,,,
Sarah Trudgian,biancapaulsen@arafmiqld.com.au,QLD,,,
Helen Irimia,bhargreaves@dsa.org.au,,,,
Sonia Bhandari,bhandarisonia97@gmail.com,,,,
Navraj Bhagat,bhagatmeena15@gmail.com,QLD,,,
Kym Soppa,beyondtoday@bigpond.com,QLD,,,
Henry Beyfus,beyfus.henry@hotmail.com,Vic,,,
Bernice Ewer,bewer53@gmail.com,VIC,,,
Beverley Tang,bevt422@yahoo.com.au,,,,
Beverley Davies,bevdavies1952@gmail.com,,,,
Gracie Beattie,bettinamatters@hotmail.com,,,,
Stephen Lockyer,bethlockyer@gmail.com,QLD,,,
Nigel Moody,bertram57@aapt.net.au,QLD,,,
Benjamin Willinski,benwillinski1986@yahoo.com,,,,
Benjamin Donnellan,benosd98@gmail.com,SA,,,
Harrison World,benjworld@yahoo.com.au,,,,
Matthew Duncan,benjosh12@bigpond.com,NSW,,,
Simon Holt,benjamin.haley@flourishaustralia.org.au,NSW,,,
Bailey Dunmore,bellistic_miss@hotmail.com,NSW,,,
Emily Reeves,bellegaz@hotmail.com,,,,
Adison Williams,belindawilliams03@hotmail.com,,,,
Joseph Spiteri,belindas_25@hotmail.com,Vic,,,
Christopher Taylor,belinda.taylor5@bigpond.com,,,,
Shamala Field,belinda.field3@optusnet.com,,,,
Joshua Maynard,bekivill3@gmail.com,VIC,,,
Rebecca Chenoweth,beckyleecheno@gmail.com,NSW,,,
Linda Delaney,beckad79@yahoo.com.au,,,,
English Rose Blyton,bec.arundel1416@gmail.com,,,,
Angelina Young,bdyoung20@hotmail.com,QLD,,,
Belinda Doonan,bdoonan@y7mail.com,NSW,,,
Ali Al-Zuhairi,bassams@iccare.com.au,NSW,,,
Bobbie-Jo Patterson,bapatte@tmr.qld.gov.au,QLD,,,
Colin Scott,bandito@bigpond.net.au,WA,,,
Angela Balog,balogs@exemail.com.au,,,,
Christine Young,bachrottrotties@hotmail.com,QLD,,,
Muamer Sehic,azrasehic1976@gmail.com,,,,
Lisa Avedissian,avedissian04@hotmail.com,QLD,,,
Stefan Nguyen,augustinnguyen@hotmail.com,NSW,,,
Benjamin Atkins,atkins1999_1999@yahoo.com,QLD,,,
Nasrullah Sakhidad,atifa_sakhidad19@yahoo.com,,,,
Sharon Molony,atawhaikids@optusnet.com.au,QLD,,,
Assdollah Heidarishahi,assadhe@yahoo.com.au,NSW,,,
Hailay Gebremariam,asresahagn34@yahoo.com,,,,
Nicholas Martin,ashleyjmartin@bigpond.com,Vic,,,
Ashley Hassett,ashhass@hotmail.com,VIC,,,
Alison Skinner,as.alisonskinner@gmail.com,NSW,,,
Akiko Akiko  Ryumon,aryumon@gmail.com,VIC,,,
Arsenios Stavropoulos,arystav@gmail.com,,,,
Aleinor Manawaiti-Smith,artyone2012@live.com.au,,,,
Nova Sarkis,arna.sarkis@gmail.com,QLD,,,
Alexandra Radburn,aradburn@gmail.com,NSW,,,
Adam Pirani,anpirani@yahoo.com.au,NSW,,,
Annmarie McAllister,annmaree53@hotmail.com,QLD,,,
Linda Cairns,annieshep2009@gmail.com,,,,
Joshua Venios,annavenios@optusnet.com.au,,,,
Ian Groves,annalisac@wcig.org.au,VIC,,,
Elena Katralis,annakatralis@gmail.com,,,,
Louis Fourie,annabellejwaldron@gmail.com,VIC,,,
Anieta Kennedy,anieta.kennedy@hotmail.com,,,,
Angus Terman,angusterman@gmail.com,,,,
Abigail Morris,angeleyes_389@hotmail.com,QLD,,,
Luke Wilson,angelawilson1969@outlook.com,,,,
Ruby Gaston,angela68cavender@gmail.com,NSW,,,
Madison Hammond,angela1@bigpond.net.au,,,,
Blake Goodsell,angela.ruspandini@lifestyleslutions.org.au,,,,
Angela Jonassen,angela.jonassen@gmail.com,QLD,,,
Benjamin Guan,angela.gallagher@multicap.org.au,,,,
Rylee Lines,ang-30@hotmail.com,SA,,,
Andrew Kelly,andrewjkelly26@gmail.com,NSW,,,
Scott Allen,andrew.green@deafservices.org.au,QLD,,,
Nelson Colmenares,andre.maddocks@flourishaustralia.org.au,NSW,,,
Ana Corral-Kelly,anamark@optusnet.com.au,NSW,,,
Amy Derrick,amyderrick@gmail.com,VIC,,,
Amy Mazzarol,amy@mazzarol.net,QLD,,,
Amira Mohamed,amira.75@hotmail.com,VIC,,,
Amir Pilehvar,amir.pilehvar@yahoo.com,VIC,,,
Shane O'Connell,amina.mohamedali@outlook.com,VIC,,,
Debra McLean,amclean7262@gmail.com,VIC,,,
Madlein Reisch,ambrosereisch210@gmail.com,,,,
Andreas Markauskas,amarkauskas1@gmail.com,NSW,,,
William Waite,amandar1972@icloud.com,VIC,,,
Amanda Contarino,amandagasman@outlook.com,,,,
Amanda Halit,amandac8@bigpond.com,,,,
Alick-Henry Waite,amanda.riches@breakthru.org.au,VIC,,,
Nicholas Lyons,amanda.lyons6@bigpond.com,NSW,,,
Jennifer Rowe,amanda.dixon@flourishaustralia.org.au,,,,
Allison Vincent-Ohmann,allisonvo_624194@yahoo.com,VIC,,,
Allison Rotgans,allisonrotgans@hotmail.com,,,,
Alli Skye,alli.skye@hotmail.com,QLD,,,
Donald Lamb,allacor@optusnet.com.au,NSW,,,
Rodney Hyde,alisonmhyde@gmail.com,,,,
Geoffrey Dibben,alisondibben@hotmail.com,SA,,,
Jackson Cottam,alicejoshuajackson@gmail.com,NSW,,,
Alia Halabi,aliah1@bigpond.com,,,,
Fiona Sharpe,ali.okeeffe@sjog.org.au,VIC,,,
Alexis Skawronski,alexisskawronski@westnet.com.au,SA,,,
Fatuma Mohamed,albert.shlemon@homecaring.com.au,QLD,,,
Lois Woodall,alan.woodall@bigpond.com,,,,
Kayla Roberts,al_marshall@cerebralpalsy.org.au,,,,
David Blackmore,akearney@windgap.org.au,NSW,,,
Patrick Haigh,ajnos72@gmail.com,VIC,,,
Anthony John Clemann,ajclemann@gmail.com,,,,
Jasmine Li,aihuafang7836@gmail.com,,,,
Christian Pedicini,adympedicini@gmail.com,SA,,,
Adrian Man-Tai Chu,adrianmtchu@gmail.com,,,,
Dermott May,adrenalineno26@gmail.com,VIC,,,
Anthony Dwyer,admin@truehero.com.au,,,,
Karen Thomas,accounts@bluelinefabrication.com.au,,,,
Thomas Briggs,abriggs@umenco.com,,,,
Cody O'Sullivan,aaron.mcdonald@rfq.com.au,QLD,,,
Alex Rice,aaatchoo@gmail.com,NSW,,,
Ann-Maree Belbin,a.tyas@outlook.com,VIC,,,
Ramin Alam,7mralam@gmail.com,,,,
Jerome Etteridge,64brian@tpg.com.au,,,,
Alan Weinstein,3dsatirist@gmail.com,NSW,,,
Alison Loseby,3104paul.pg@gmail.com,,,,
Lareinas GuoYing Zhang,13503488808@126.com,NSW,,,