<?xml version="1.0" encoding="utf-8"?>
<!-- Generator: Adobe Illustrator 26.0.1, SVG Export Plug-In . SVG Version: 6.00 Build 0)  -->
<svg version="1.1" id="Layer_1" xmlns="http://www.w3.org/2000/svg" xmlns:xlink="http://www.w3.org/1999/xlink" x="0px" y="0px"
	 viewBox="0 0 16 16" style="enable-background:new 0 0 16 16;" xml:space="preserve">
<style type="text/css">
	.st0{fill-rule:evenodd;clip-rule:evenodd;fill:#ECF0F1;}
</style>
<path id="message_2_accept" class="st0" d="M14,2v10H6.4L4,14v-2H2V2H14z M14,0H2C0.9,0,0,0.9,0,2v10c1.3,1,2.4,2.3,3.2,3.8
	c0.7,0.3,1.5,0.2,2.1-0.3L7.1,14H14c1.1,0,2-0.9,2-2V2C16,0.9,15.1,0,14,0L14,0z M7,10c-0.3,0-0.5-0.1-0.7-0.3l-2-2
	c-0.4-0.4-0.4-1,0-1.4c0.4-0.4,1-0.4,1.4,0L7,7.6l3.3-3.3c0.4-0.4,1-0.4,1.4,0c0.4,0.4,0.4,1,0,1.4l-4,4C7.5,9.9,7.3,10,7,10z"/>
</svg>
