<?xml version="1.0" encoding="utf-8"?>
<!-- Generator: Adobe Illustrator 26.0.1, SVG Export Plug-In . SVG Version: 6.00 Build 0)  -->
<svg version="1.1" id="Layer_1" xmlns="http://www.w3.org/2000/svg" xmlns:xlink="http://www.w3.org/1999/xlink" x="0px" y="0px"
	 viewBox="0 0 16 12" style="enable-background:new 0 0 16 12;" xml:space="preserve">
<style type="text/css">
	.st0{fill-rule:evenodd;clip-rule:evenodd;fill:#ECF0F1;}
</style>
<path id="eye_2" class="st0" d="M8,3C6.3,3,5,4.3,5,6c0,1.7,1.3,3,3,3c1.7,0,3-1.3,3-3c0,0,0,0,0,0C11,4.3,9.6,3,8,3z M15.9,5.6
	C15.8,5.4,13.6,0,8,0S0.2,5.4,0.1,5.6C0,5.9,0,6.1,0.1,6.4C0.2,6.6,2.4,12,8,12s7.8-5.4,7.9-5.6C16,6.1,16,5.9,15.9,5.6L15.9,5.6z
	 M8,10c-3.5,0-5.3-2.9-5.9-4C2.6,4.9,4.5,2,8,2c3.5,0,5.3,2.9,5.9,4C13.3,7.1,11.5,10,8,10z"/>
</svg>
