<?xml version="1.0" encoding="utf-8"?>
<!-- Generator: Adobe Illustrator 26.0.2, SVG Export Plug-In . SVG Version: 6.00 Build 0)  -->
<svg version="1.1" id="Layer_1" xmlns="http://www.w3.org/2000/svg" xmlns:xlink="http://www.w3.org/1999/xlink" x="0px" y="0px"
	 viewBox="0 0 16 16" style="enable-background:new 0 0 16 16;" xml:space="preserve">
<style type="text/css">
	.st0{fill-rule:evenodd;clip-rule:evenodd;fill:#F1F1F1;}
</style>
<path id="message_2_question" class="st0" d="M14,0H2C0.9,0,0,0.9,0,2v10c1.3,1,2.4,2.3,3.2,3.8c0.7,0.3,1.5,0.2,2.1-0.3L7.1,14H14
	c1.1,0,2-0.9,2-2V2C16,0.9,15.1,0,14,0z M14,12H6.4L4,14v-2H2V2h12V12z M8,9c-0.6,0-1,0.4-1,1s0.4,1,1,1s1-0.4,1-1S8.6,9,8,9z M6,6
	c0.6,0,1-0.4,1-1h2v0.4L7.6,6.1C7.1,6.4,6.9,7,7.1,7.4C7.3,7.8,7.6,8,8,8c0.2,0,0.3,0,0.4-0.1l2-1C10.8,6.7,11,6.4,11,6V4
	c0-0.6-0.4-1-1-1H6C5.4,3,5,3.4,5,4v1C5,5.6,5.4,6,6,6z"/>
</svg>
